<?xml version="1.0" encoding="UTF-8" standalone="no"?>
<!-- Created with Inkscape (http://www.inkscape.org/) -->

<svg
   xmlns:dc="http://purl.org/dc/elements/1.1/"
   xmlns:cc="http://creativecommons.org/ns#"
   xmlns:rdf="http://www.w3.org/1999/02/22-rdf-syntax-ns#"
   xmlns:svg="http://www.w3.org/2000/svg"
   xmlns="http://www.w3.org/2000/svg"
   xmlns:sodipodi="http://sodipodi.sourceforge.net/DTD/sodipodi-0.dtd"
   xmlns:inkscape="http://www.inkscape.org/namespaces/inkscape"
   width="1122.5197"
   height="1587.4016"
   viewBox="0 0 297.00003 420.00001"
   version="1.1"
   id="svg8"
   inkscape:version="0.92.3 (2405546, 2018-03-11)"
   sodipodi:docname="cetak-speaker-belakang.svg"
   style="enable-background:new">
  <defs
     id="defs2">
    <filter
       id="g-5-2"
       style="color-interpolation-filters:sRGB">
      <feBlend
         mode="multiply"
         in2="BackgroundImage"
         id="feBlend6721-9" />
    </filter>
    <clipPath
       id="clipPath987"
       clipPathUnits="userSpaceOnUse">
      <circle
         style="display:inline;opacity:1;fill:#3584e4;fill-opacity:1;stroke:none;stroke-width:4.28571415;stroke-linecap:butt;stroke-linejoin:miter;stroke-miterlimit:4;stroke-dasharray:none;stroke-dashoffset:0;stroke-opacity:1;marker:none;marker-start:none;marker-mid:none;marker-end:none;paint-order:normal;enable-background:new"
         id="circle989"
         cx="63.999996"
         cy="236"
         r="60" />
    </clipPath>
    <linearGradient
       id="f-5">
      <stop
         offset="0"
         stop-color="#2e3436"
         id="stop30908" />
      <stop
         offset="1"
         stop-color="#555753"
         id="stop30910" />
    </linearGradient>
  </defs>
  <sodipodi:namedview
     id="base"
     pagecolor="#ffffff"
     bordercolor="#666666"
     borderopacity="1.0"
     inkscape:pageopacity="0.0"
     inkscape:pageshadow="2"
     inkscape:zoom="0.35277777"
     inkscape:cx="46.771626"
     inkscape:cy="793.7008"
     inkscape:document-units="px"
     inkscape:current-layer="layer2"
     showgrid="false"
     units="px"
     borderlayer="true"
     inkscape:pagecheckerboard="true"
     inkscape:window-width="1346"
     inkscape:window-height="724"
     inkscape:window-x="6"
     inkscape:window-y="30"
     inkscape:window-maximized="1"
     inkscape:snap-global="false">
    <inkscape:grid
       type="xygrid"
       id="grid815"
       dotted="false"
       originx="-543.89223"
       originy="1.1208545e-05" />
  </sodipodi:namedview>
  <metadata
     id="metadata5">
    <rdf:RDF>
      <cc:Work
         rdf:about="">
        <dc:format>image/svg+xml</dc:format>
        <dc:type
           rdf:resource="http://purl.org/dc/dcmitype/StillImage" />
        <dc:title />
        <dc:date />
        <dc:creator>
          <cc:Agent>
            <dc:title />
          </cc:Agent>
        </dc:creator>
        <dc:subject>
          <rdf:Bag />
        </dc:subject>
        <dc:description />
        <cc:license
           rdf:resource="" />
      </cc:Work>
    </rdf:RDF>
  </metadata>
  <g
     inkscape:label="background"
     inkscape:groupmode="layer"
     id="layer1"
     transform="translate(-543.89217,123.00006)"
     sodipodi:insensitive="true">
    <path
       inkscape:connector-curvature="0"
       id="path8912"
       d="M 543.89217,-123.00006 H 840.89219 V 296.99997 H 543.89217 Z"
       style="opacity:1;vector-effect:none;fill:#4a88cf;fill-opacity:1;fill-rule:nonzero;stroke:none;stroke-width:0.43248314;stroke-linecap:butt;stroke-linejoin:miter;stroke-miterlimit:4;stroke-dasharray:none;stroke-dashoffset:0;stroke-opacity:1;paint-order:stroke fill markers" />
  </g>
  <g
     inkscape:groupmode="layer"
     id="layer2"
     inkscape:label="artwork"
     transform="translate(-543.89217,-320.83328)">
    <g
       style="display:inline;fill:#ffffff"
       id="g15795"
       transform="matrix(0.45197114,0,0,0.45197114,577.59151,345.50792)">
      <g
         transform="translate(206.375,11.428555)"
         id="g15753"
         inkscape:label="latar"
         style="fill:#ffffff" />
      <g
         inkscape:label="tanduk-belakang"
         id="g15757"
         style="fill:#ffffff">
        <path
           inkscape:label="tanduk-belakang"
           style="fill:#ffffff;stroke-width:2.16563773"
           inkscape:connector-curvature="0"
           d="m 144.88916,124.25636 c 5.56136,-4.44822 6.00748,-6.44927 0.33351,-13.01548 -2.0357,-2.35622 3.8505,-10.23481 6.89539,5.00695 0.49376,2.47532 6.72647,-8.40267 4.05624,-17.3251 -1.51595,-5.06543 -7.15527,-8.78599 -4.72109,-11.93266 3.0059,-3.89599 9.43785,-3.80286 11.67712,5.44874 1.73684,7.17259 -0.80129,13.62836 1.48996,13.00249 7.68152,-2.09634 2.85431,-7.70751 6.77844,-9.04587 4.9918,-1.70219 7.6512,4.65829 3.11852,9.00905 -3.19648,3.07088 -3.96312,2.36055 -8.71453,6.05513 -2.41035,1.8776 -4.01292,3.88515 -8.78815,9.12599 -4.95498,5.44008 -10.12436,6.4536 -10.12436,6.4536 z"
           id="path15755" />
      </g>
      <g
         inkscape:label="badan-rusa"
         id="g15765"
         style="fill:#ffffff">
        <g
           inkscape:label="badan-utuh"
           transform="translate(206.37501,11.428555)"
           id="g15763"
           style="fill:#ffffff">
          <path
             inkscape:label="badan-gelap"
             id="path15759"
             d="m -29.921637,114.27227 c 5.340463,5.34046 -9.43785,6.86507 -17.80154,14.24123 -15.12915,13.35116 13.909889,25.0586 24.03208,28.03635 15.129145,4.44822 16.019222,28.92425 -23.58596,27.1441 -39.60518,-1.78015 -43.91264,-20.09279 -39.16123,-37.82503 8.74918,-32.64482 17.11937,-34.06981 29.8165,-35.15479 14.66137,-1.25607 26.70015,3.56031 26.70015,3.56031 z"
             inkscape:connector-curvature="0"
             style="fill:#ffffff;stroke-width:2.16563773" />
          <path
             inkscape:label="badan-terang"
             id="path15761"
             d="m -29.282774,115.04324 c -24.807383,6.11792 -57.469523,20.68617 -51.728423,58.27947 5.92519,5.66748 16.38305,9.59378 33.73414,10.37341 39.605182,1.77798 38.715105,-22.69589 23.583794,-27.14627 -10.120025,-2.97775 -39.159064,-14.68303 -24.029914,-28.03635 7.94572,-7.01017 21.669369,-8.73618 18.440403,-13.47026 z"
             inkscape:connector-curvature="0"
             style="fill:#ffffff;stroke-width:2.16563773" />
        </g>
      </g>
      <g
         inkscape:label="tanduk-depan"
         id="g15769"
         style="fill:#ffffff">
        <path
           inkscape:label="tanduk-depan"
           inkscape:connector-curvature="0"
           style="fill:#ffffff;stroke-width:2.16563773"
           d="m 141.99368,124.25636 c -5.55919,-4.44822 -6.00748,-6.44927 -0.33134,-13.01548 2.0357,-2.35622 -3.85483,-10.23481 -6.89756,5.00695 -0.49376,2.47532 -6.7243,-8.40267 -4.05407,-17.3251 1.51595,-5.06543 7.1531,-8.78599 4.72109,-11.93267 -3.01024,-3.89598 -9.44218,-3.80286 -11.67928,5.44875 -1.73684,7.17259 0.80128,13.62836 -1.4878,13.00249 -7.68368,-2.09634 -2.85864,-7.70751 -6.78061,-9.04587 -4.99179,-1.70219 -7.64903,4.65829 -3.11852,9.00905 3.19648,3.07088 3.96312,2.36055 8.71453,6.05513 2.41035,1.8776 4.01509,3.88515 8.78816,9.12599 4.95714,5.44008 10.12435,6.4536 10.12435,6.4536 z"
           id="path15767" />
      </g>
      <g
         inkscape:label="hidung-rusa"
         id="g15773"
         style="fill:#ffffff">
        <path
           inkscape:label="hidung"
           inkscape:connector-curvature="0"
           style="fill:#ffffff;stroke-width:2.16563773"
           d="m 174.8248,125.61854 c 1.33837,-1.02219 3.2268,-0.47211 3.54082,0.62803 0.31618,1.10447 -1.88844,2.28474 -3.30476,1.57658 -1.41633,-0.70816 -0.23822,-2.20461 -0.23822,-2.20461 z"
           id="path15771" />
      </g>
      <g
         inkscape:label="gresik"
         id="g15777"
         style="fill:#ffffff;fill-opacity:1">
        <path
           inkscape:label="teks-gresik"
           inkscape:connector-curvature="0"
           id="path15775"
           transform="scale(0.26458333)"
           d="m 922.77344,725.20703 c -2.25651,0 -4.39079,0.3988 -6.4043,1.19727 -2.01353,0.79846 -3.78306,1.96079 -5.31055,3.48828 -1.49276,1.52748 -2.67311,3.40319 -3.54101,5.625 -0.86788,2.18708 -1.30274,4.68608 -1.30274,7.49804 0,2.84669 0.41684,5.3637 1.25,7.55079 0.86791,2.15239 2.04826,3.95797 3.54102,5.41601 1.49279,1.45807 3.24626,2.56829 5.25976,3.33203 2.04823,0.72902 4.23461,1.09375 6.56055,1.09375 2.39539,0 4.5657,-0.39882 6.50977,-1.19726 1.94409,-0.79847 3.5052,-1.77039 4.68554,-2.91602 v -15.62304 h -12.39257 v 6.25 h 5.62304 v 5.83203 c -0.41658,0.34713 -0.95367,0.60764 -1.61328,0.78125 -0.6596,0.1736 -1.33695,0.25976 -2.03125,0.25976 -3.19385,0 -5.58862,-0.95391 -7.18554,-2.86328 -1.56221,-1.94409 -2.34376,-4.66951 -2.34376,-8.17578 0,-1.70109 0.2084,-3.22813 0.625,-4.58203 0.45131,-1.3539 1.07654,-2.50018 1.875,-3.4375 0.79847,-0.93732 1.73437,-1.64875 2.81055,-2.13477 1.11091,-0.52074 2.32731,-0.78125 3.64649,-0.78125 1.45806,0 2.67248,0.26051 3.64453,0.78125 0.97204,0.52072 1.89188,1.16204 2.75976,1.92578 l 4.00977,-4.89453 c -1.11091,-1.1456 -2.55176,-2.16964 -4.32227,-3.07226 -1.77048,-0.9026 -3.88868,-1.35352 -6.35351,-1.35352 z m 133.93746,0 c -1.7705,0 -3.4017,0.26051 -4.8945,0.78125 -1.4581,0.52072 -2.7246,1.24823 -3.8008,2.18555 -1.0762,0.90262 -1.9098,1.9807 -2.5,3.23047 -0.5901,1.21504 -0.8847,2.51567 -0.8847,3.90429 0,1.24977 0.1903,2.378 0.5722,3.38477 0.3819,0.97204 0.8849,1.83977 1.5098,2.60352 0.6596,0.72902 1.389,1.37226 2.1875,1.92773 0.8332,0.55544 1.6848,1.00635 2.5527,1.35351 l 4.4258,1.875 c 0.7291,0.31245 1.3884,0.60705 1.9785,0.88477 0.6249,0.243 1.1459,0.52154 1.5625,0.83399 0.4512,0.27774 0.7799,0.60642 0.9883,0.98828 0.2429,0.38188 0.3652,0.83277 0.3652,1.35351 0,1.00674 -0.3988,1.80633 -1.1972,2.39649 -0.7638,0.59018 -1.9441,0.88476 -3.541,0.88476 -1.4234,0 -2.8823,-0.33063 -4.375,-0.99023 -1.4581,-0.65961 -2.7947,-1.50932 -4.0098,-2.55078 l -4.3731,5.25976 c 1.7358,1.63165 3.6958,2.86408 5.8829,3.69727 2.2218,0.79844 4.4442,1.19726 6.666,1.19726 2.0135,0 3.8191,-0.27854 5.416,-0.83398 1.5969,-0.59016 2.9336,-1.35369 4.0098,-2.29102 1.1109,-0.97204 1.9445,-2.08226 2.5,-3.33203 0.5901,-1.28448 0.8847,-2.63915 0.8847,-4.0625 0,-2.39539 -0.6072,-4.32125 -1.8222,-5.77929 -1.1804,-1.45807 -2.8117,-2.60432 -4.8946,-3.4375 l -4.375,-1.76954 c -0.729,-0.31231 -1.4063,-0.59083 -2.0312,-0.83398 -0.6249,-0.27772 -1.18,-0.55431 -1.666,-0.83203 -0.4513,-0.31244 -0.8161,-0.64307 -1.0938,-0.99024 -0.2431,-0.38185 -0.3633,-0.83277 -0.3633,-1.35351 0,-0.97205 0.3808,-1.71949 1.1446,-2.24024 0.7984,-0.55544 1.8565,-0.83203 3.1757,-0.83203 1.3539,0 2.5864,0.2425 3.6973,0.72852 1.1109,0.4513 2.2231,1.11063 3.334,1.97851 l 3.9043,-4.84179 c -1.4581,-1.45807 -3.1575,-2.57025 -5.1016,-3.33399 -1.9093,-0.76374 -3.8552,-1.14453 -5.834,-1.14453 z m -101.00778,0.625 v 33.95117 h 7.6543 v -12.23632 h 4.21875 l 6.50977,12.23632 h 8.59179 l -7.70703,-13.59179 c 1.83993,-0.79847 3.29687,-1.99487 4.37305,-3.5918 1.1109,-1.63162 1.66797,-3.69774 1.66797,-6.19727 0,-2.01353 -0.34865,-3.69688 -1.04297,-5.05078 -0.6943,-1.3539 -1.6302,-2.43005 -2.81055,-3.22851 -1.18032,-0.83319 -2.56909,-1.42433 -4.16601,-1.77149 -1.56221,-0.34716 -3.24556,-0.51953 -5.05078,-0.51953 z m 46.57228,0 v 33.95117 h 21.7676 v -6.45703 h -14.1114 v -7.81055 h 11.5586 v -6.40624 h -11.5586 v -6.82032 h 13.5899 v -6.45703 z m 86.793,0 v 33.95117 h 7.6543 v -33.95117 z m 30.3242,0 v 33.95117 h 7.6562 v -9.11328 l 3.9571,-5.20703 8.2793,14.32031 h 8.3847 l -12.1347,-20.41211 10.2597,-13.53906 h -8.4355 l -10.1035,13.90235 h -0.2071 v -13.90235 z m -156.03518,6.0918 h 3.95899 c 2.0135,0 3.54054,0.33065 4.58203,0.99023 1.07618,0.65961 1.61328,1.82192 1.61328,3.48828 0,1.66635 -0.5371,2.9329 -1.61328,3.80078 -1.04149,0.83319 -2.56853,1.25001 -4.58203,1.25 h -3.95899 z"
           style="font-weight:700;font-size:13.77778721px;line-height:1.25;font-family:'Source Sans Pro';-inkscape-font-specification:'Source Sans Pro Bold';letter-spacing:3.87649131;word-spacing:0;fill:#ffffff;fill-opacity:1;stroke-width:2.43915606" />
      </g>
      <g
         inkscape:label="line"
         id="g15781"
         style="fill:#ffffff;fill-opacity:1">
        <path
           inkscape:label="garis-gresik"
           inkscape:connector-curvature="0"
           style="color:#000000;font-style:normal;font-variant:normal;font-weight:normal;font-stretch:normal;font-size:medium;line-height:normal;font-family:sans-serif;font-variant-ligatures:normal;font-variant-position:normal;font-variant-caps:normal;font-variant-numeric:normal;font-variant-alternates:normal;font-feature-settings:normal;text-indent:0;text-align:start;text-decoration:none;text-decoration-line:none;text-decoration-style:solid;text-decoration-color:#000000;letter-spacing:normal;word-spacing:normal;text-transform:none;writing-mode:lr-tb;direction:ltr;text-orientation:mixed;dominant-baseline:auto;baseline-shift:baseline;text-anchor:start;white-space:normal;shape-padding:0;clip-rule:nonzero;display:inline;overflow:visible;visibility:visible;opacity:1;isolation:auto;mix-blend-mode:normal;color-interpolation:sRGB;color-interpolation-filters:linearRGB;solid-color:#000000;solid-opacity:1;vector-effect:none;fill:#ffffff;fill-opacity:1;fill-rule:nonzero;stroke:none;stroke-width:0.48293719;stroke-linecap:butt;stroke-linejoin:miter;stroke-miterlimit:4;stroke-dasharray:none;stroke-dashoffset:0;stroke-opacity:1;color-rendering:auto;image-rendering:auto;shape-rendering:auto;text-rendering:auto;enable-background:accumulate"
           d="m 207.4101,196.29387 v 0.48214 h 22.45909 v -0.48214 z m 103.59005,0 v 0.48214 h 22.45702 v -0.48214 z"
           id="path15779" />
      </g>
      <g
         inkscape:label="summit"
         id="g15785"
         style="fill:#ffffff;fill-opacity:1">
        <path
           inkscape:label="teks-summit"
           inkscape:connector-curvature="0"
           id="path15783"
           transform="scale(0.26458333)"
           d="m 1054.4707,637.66992 c -0.4394,10e-6 -0.8555,0.0977 -1.2461,0.29297 -0.5208,0.17358 -0.9115,0.52025 -1.1719,1.04102 -0.1736,0.52076 -0.39,1.26011 -0.6504,2.21484 -0.2602,0.95476 -0.3044,1.60401 -0.1308,1.95117 -0.5208,2.51704 -1.3443,5.51258 -2.4727,8.98438 -1.0415,3.47177 -1.7789,6.76992 -2.2129,9.89453 -3.9057,0.95476 -6.6848,1.7362 -8.3339,2.34375 -1.4755,0.60757 -1.9946,1.6495 -1.5606,3.125 0.434,1.4755 1.518,2.03857 3.2539,1.6914 2.1699,-0.60757 4.0354,-1.12853 5.5977,-1.5625 -0.868,4.68692 -1.8658,9.28748 -2.9942,13.80079 -1.0415,4.42653 -2.6044,8.85276 -4.6875,13.27929 -0.3471,1.4755 0.088,2.56151 1.3028,3.25586 1.2151,0.69438 2.3432,0.34576 3.3847,-1.04297 2.3435,-4.9473 4.0787,-9.93662 5.2071,-14.9707 1.2151,-5.12088 2.3011,-10.32856 3.2558,-15.62305 1.5623,-0.34716 4.6,-0.95626 9.1133,-1.82422 1.3887,-0.26038 2.2563,-0.69321 2.6035,-1.30078 0.4339,-0.60754 0.6082,-1.21469 0.5215,-1.82226 -0.087,-0.60757 -0.3913,-1.12854 -0.9121,-1.5625 -0.5208,-0.43387 -1.2141,-0.60816 -2.082,-0.52149 l -8.2032,1.5625 0.3907,-1.5625 c 0.6943,-3.0378 1.4317,-6.07547 2.2128,-9.11328 0.868,-3.03781 1.5633,-6.11953 2.084,-9.24414 L 1057,640.4375 h -0.1289 c 0,-1.4755 -0.6512,-2.38719 -1.9531,-2.73438 -0.1519,-0.0217 -0.3008,-0.0332 -0.4473,-0.0332 z m 129.3359,5.5 c -2.951,0.86796 -5.9024,1.86778 -8.8535,2.9961 -1.6491,0.60757 -2.2562,1.60541 -1.8222,2.99414 h -0.6504 c -3.5586,0.78115 -7.3337,4.5562 -11.3262,11.32617 -3.819,6.4228 -6.2495,12.93289 -7.291,19.52929 -0.3096,1.87967 -0.461,3.59578 -0.4551,5.1543 -0.2484,-0.24672 -0.5234,-0.45439 -0.8457,-0.59765 -0.6943,-0.34719 -1.3896,-0.34719 -2.084,0 -9.8078,-0.69435 -18.3136,-0.17339 -25.5176,1.5625 -2.6906,0.78115 -4.1654,1.17187 -4.4257,1.17187 -0.1737,0 -0.392,0.0422 -0.6524,0.12891 0,-0.0867 0.044,-0.12891 0.1309,-0.12891 5.468,-4.16615 10.0245,-8.55028 13.6699,-13.15039 5.2077,-6.59638 7.5941,-12.28097 7.1602,-17.05469 -0.3472,-3.99254 -2.1686,-6.379 -5.4668,-7.16015 -1.4755,-0.34719 -3.1246,-0.34719 -4.9473,0 -1.7359,0.26038 -3.5152,0.73729 -5.3379,1.43164 -1.7359,0.60757 -3.429,1.34496 -5.0781,2.21289 -1.5623,0.86795 -2.995,1.73558 -4.2969,2.60351 -1.2151,0.86796 -1.3454,2.04013 -0.3906,3.51563 0.8679,1.30192 2.1263,1.51832 3.7754,0.65039 2.1698,-1.56231 4.5142,-2.90682 7.0312,-4.03516 2.6039,-1.21514 4.7739,-1.7361 6.5098,-1.5625 1.7359,0.0868 2.7337,1.04059 2.9941,2.86328 0.2604,1.82269 -0.8236,4.86231 -3.2539,9.11524 -2.4302,4.25295 -6.2934,8.67918 -11.5879,13.27929 -2.3434,2.08308 -6.8138,5.51147 -13.4101,10.28516 -1.302,0.95476 -1.6927,2.16903 -1.1719,3.64453 0.1736,0.60755 0.5222,1.12851 1.043,1.5625 0.5207,0.43397 1.214,0.65039 2.082,0.65039 0.9547,0 1.8664,-0.30258 2.7344,-0.91015 0.8679,-0.60755 2.3427,-1.17259 4.4257,-1.69336 2.0831,-0.52077 5.5996,-1.3884 10.5469,-2.60352 4.9473,-1.21514 10.0669,-1.82226 15.3613,-1.82226 1.5624,0 3.2555,0.17234 5.0782,0.51953 1.8227,0.34716 3.5158,0.261 5.0781,-0.25977 0.4807,-0.24036 0.8535,-0.56784 1.1309,-0.97461 0.5286,2.86073 1.7967,4.96738 3.8144,6.3125 2.6907,1.73602 5.9026,1.69183 9.6348,-0.13086 1.5623,-0.69435 3.0811,-1.60408 4.5566,-2.73242 1.3887,-1.12831 2.9516,-2.64715 4.6875,-4.55664 1.8227,-1.99627 4.0348,-5.33847 6.6387,-10.02539 1.3887,-2.51704 2.7352,-5.16396 4.0371,-7.94141 1.3019,-2.77742 2.3419,-5.5125 3.123,-8.20312 0.7813,-2.69065 1.2161,-5.16327 1.3028,-7.41992 0.1736,-2.34346 -0.043,-4.12278 -0.6504,-5.33789 -0.6076,-1.30193 -1.3469,-2.21361 -2.2149,-2.73438 -0.8679,-0.52077 -1.6915,-1.08579 -2.4726,-1.69336 -0.6944,-0.60744 -1.4758,-0.86793 -2.3438,-0.78125 z m -151.8007,1.82422 c -1.736,0.17361 -2.6477,0.99715 -2.7344,2.47266 0,0.69435 0.1743,1.30149 0.5215,1.82226 0.4339,0.5209 1.1272,0.82543 2.082,0.91211 h 0.5215 c 1.5623,-0.34719 2.3437,-1.17269 2.3437,-2.47461 0,-1.30192 -0.7393,-2.21165 -2.2148,-2.73242 z m 185.1289,2.86328 c -1.302,0 -2.1275,0.78145 -2.4746,2.34375 v 0.13086 c -0.434,0.69435 -0.5643,1.4758 -0.3907,2.34375 -0.434,2.25666 -0.9108,4.46882 -1.4316,6.63867 -0.434,2.16988 -0.8247,4.25373 -1.1719,6.25 -0.3472,1.9095 -0.9984,6.29167 -1.9531,13.14844 -0.9548,6.76999 -1.7783,11.28436 -2.4727,13.54102 -0.3473,0.43399 -0.5637,0.91089 -0.6504,1.43164 v 0.51953 c 0.2604,1.30192 0.9097,2.1715 1.9512,2.60547 1.0416,0.43399 1.9973,0.0433 2.8652,-1.17188 1.2152,-2.25665 2.0828,-5.29432 2.6036,-9.11328 0.1737,-1.64911 0.3039,-3.25605 0.3906,-4.81836 0.1736,-1.64908 0.4781,-3.86125 0.9121,-6.63867 0.434,-2.77745 1.1273,-6.16371 2.082,-10.15625 0.9548,-4.07935 1.6501,-8.20104 2.084,-12.36719 0.2604,-0.78115 0.3906,-1.60665 0.3906,-2.47461 -0.5207,-1.4755 -1.4324,-2.21289 -2.7343,-2.21289 z m 38.5039,0.17969 c -1.3019,0.0651 -2.8955,0.56977 -4.7832,1.51367 -5.0341,2.51704 -9.0696,5.94543 -12.1075,10.28516 -1.2151,1.82269 -2.2149,3.77435 -2.996,5.85742 -0.6944,1.99627 -0.9549,3.64534 -0.7813,4.94726 0.2604,1.30193 0.4787,2.16956 0.6523,2.60352 0.2604,0.34719 0.9537,0.73791 2.0821,1.17188 1.2151,0.34721 2.6918,0.43532 4.4277,0.26171 4.6869,-0.52076 9.5901,-2.99534 14.711,-7.42187 -0.087,0.17358 -0.1731,0.39001 -0.2598,0.65039 0,0.26038 -0.2184,1.04183 -0.6524,2.34375 -0.3471,1.21512 -0.78,2.99443 -1.3007,5.33789 -1.9095,9.37383 -4.4703,16.10034 -7.6817,20.17969 -0.6943,1.38872 -0.6081,2.51683 0.2598,3.38476 0.9547,0.95476 2.1269,1.085 3.5156,0.39063 2.7774,-3.47177 5.0336,-8.20062 6.7695,-14.18945 0.6944,-2.51704 1.3035,-5.0778 1.8243,-7.68164 0.6075,-2.51704 1.3008,-5.03372 2.082,-7.55079 0.7811,-2.51704 1.9533,-4.81731 3.5156,-6.90039 1.6491,-2.16985 2.7772,-4.47013 3.3848,-6.90039 0.1736,-1.21512 -0.131,-2.08274 -0.9121,-2.60351 -0.7812,-0.52065 -1.735,-0.56483 -2.8633,-0.13086 -1.3887,0.78115 -3.124,2.16974 -5.207,4.16601 -1.9963,1.9095 -4.1242,3.86311 -6.3809,5.85938 -2.2567,1.90949 -4.5129,3.55856 -6.7695,4.94726 -2.1699,1.30193 -4.1656,1.73475 -5.9883,1.30079 -0.3472,-2.16986 1.4321,-5.33776 5.3379,-9.50391 3.8189,-4.16615 7.0309,-6.50853 9.6347,-7.0293 0.7812,0.95474 1.6909,1.21522 2.7325,0.78125 1.0415,-0.43396 1.6506,-1.34565 1.8242,-2.73437 -0.5425,-2.33262 -1.9005,-3.44444 -4.0703,-3.33594 z m -71.9629,0.60156 v 0 c 0.6944,0.52077 1.3437,1.08579 1.9512,1.69336 0.2603,2.95101 0.3045,4.98885 0.1309,6.11719 -0.9548,5.90203 -3.3412,12.23977 -7.1602,19.00976 -4.2529,7.46434 -8.7232,12.23724 -13.4101,14.32032 -0.7812,0.34721 -1.6067,0.43337 -2.4747,0.25976 -0.7811,-0.17335 -1.6047,-0.21558 -2.4726,-0.1289 -2.7774,-3.90577 -2.2565,-10.24155 1.5625,-19.00782 1.5623,-3.55857 3.4278,-6.85672 5.5976,-9.89453 2.2567,-3.03781 4.2965,-5.20784 6.1192,-6.50976 0.4339,0.0869 0.8247,0.17309 1.1719,0.25976 2.2566,0.52077 3.6012,0.13005 4.0351,-1.17187 0.434,-1.21512 0.1735,-2.21299 -0.7812,-2.99414 0.9547,-0.34719 1.9105,-0.65173 2.8652,-0.91211 0.9547,-0.34716 1.9085,-0.69383 2.8633,-1.04102 z m -373.65236,3.51563 c -2.16985,0.17345 -4.51421,0.30369 -7.03125,0.39062 -9.8078,0.34719 -16.57837,2.55933 -20.31055,6.63867 -0.34716,0.52077 -0.60764,1.3463 -0.78125,2.47461 -0.0868,0.52077 -0.21506,1.17198 -0.38867,1.95313 -0.17358,0.78115 0.21519,1.64875 1.16992,2.60351 2.51704,1.73589 8.5943,4.12235 18.22852,7.16016 8.50587,2.77742 13.27877,5.03362 14.32031,6.76953 -1.90949,3.73228 -6.77053,5.64184 -14.58203,5.72852 -3.21142,-0.0868 -6.4214,-0.25915 -9.63282,-0.51953 -3.21138,-0.34719 -5.90238,-0.52149 -8.07226,-0.52149 -0.52077,-0.34716 -1.08581,-0.51953 -1.69336,-0.51953 -0.60757,0 -1.25878,0.30261 -1.95312,0.91016 -0.60745,0.52076 -0.64968,1.56269 -0.12891,3.125 0.52077,0.95476 2.12576,1.60596 4.81641,1.95312 1.04153,0.17361 2.0394,0.25977 2.99414,0.25977 0.95473,0 1.69212,0.0442 2.21289,0.13086 7.55114,0.60757 13.58434,0.47733 18.09765,-0.39063 7.72473,-1.4755 12.19502,-4.73155 13.41016,-9.76562 0.43396,-2.08308 -0.52178,-4.03474 -2.86524,-5.85743 -0.95473,-0.78115 -1.9526,-1.43235 -2.99414,-1.95312 -1.12834,-0.52077 -2.38669,-1.04173 -3.77539,-1.5625 -1.38872,-0.52077 -3.16801,-1.04173 -5.33789,-1.5625 -2.16985,-0.60757 -5.20751,-1.4752 -9.11328,-2.60352 -3.90576,-1.12834 -7.11773,-2.47285 -9.63476,-4.03515 0.0867,-0.0868 0.13085,-0.21702 0.13086,-0.39063 3.55857,-2.16987 7.20338,-3.60252 10.93554,-4.29687 1.73591,-0.34719 3.51523,-0.52149 5.33789,-0.52149 1.82269,-0.0868 3.9927,-0.21702 6.50977,-0.39062 1.5623,-0.26039 2.34375,-1.08396 2.34375,-2.47266 0,-1.21512 -0.73736,-2.1268 -2.21289,-2.73437 z m 116.94726,7.10937 c -3.17344,-0.0966 -7.56713,2.13469 -13.18164,6.69141 -2.43026,1.99627 -4.64435,4.07817 -6.64062,6.24804 -1.99627,2.16988 -3.38487,3.73277 -4.16602,4.6875 -0.69437,0.86796 -1.17125,1.60535 -1.43164,2.2129 l -0.78125,1.5625 v -2.08204 l 0.13086,-4.16796 v -4.29493 c 0,-3.38497 -0.86958,-5.68524 -2.60547,-6.90039 -0.78115,-0.52077 -1.73494,-0.65101 -2.86328,-0.39062 -1.12834,0.26038 -2.51693,1.25823 -4.16602,2.99414 -1.6491,1.64908 -3.0377,3.77506 -4.16601,6.3789 -1.04154,2.60385 -1.95322,5.29485 -2.73438,8.07227 -0.1736,-2.86423 -0.47814,-5.68547 -0.91211,-8.46289 -0.34718,-2.77742 -1.04049,-5.1198 -2.08203,-7.0293 -2.43023,-4.16614 -6.50982,-4.86143 -12.23828,-2.08398 -1.3887,1.04154 -1.73536,2.16965 -1.04101,3.38476 0.26038,0.52075 0.6511,0.86937 1.17187,1.04297 0.60755,0.34706 1.12851,0.47731 1.5625,0.39063 0.43397,-0.0868 1.21346,-0.4775 2.3418,-1.17188 1.12831,-0.69435 1.9979,-0.82459 2.60547,-0.39062 1.82269,1.04154 2.9929,5.64206 3.51367,13.80078 0.17371,3.21139 0.30395,6.29116 0.39062,9.24219 0.0868,2.951 0.34729,5.12104 0.78125,6.50976 0.86794,1.82269 2.25653,2.2575 4.16602,1.30274 1.38872,-1.82269 2.38659,-3.94867 2.99414,-6.37891 0.60757,-2.43026 1.17259,-4.90484 1.69336,-7.42187 0.52077,-2.51704 1.21603,-4.99162 2.08398,-7.42188 0.86794,-2.51704 2.25653,-4.72918 4.16602,-6.63867 0.17358,3.5586 0.0855,7.16126 -0.26172,10.80664 -0.34729,3.64535 -0.3031,7.24609 0.13086,10.80469 0.17358,1.21511 0.65049,1.99656 1.43164,2.34375 0.86796,0.43384 1.8237,0.38991 2.86524,-0.13086 1.30192,-1.04154 2.60237,-2.90701 3.90429,-5.59766 0.52077,-1.04154 1.21603,-2.56037 2.08399,-4.55664 0.95473,-1.99627 2.47356,-4.12225 4.55664,-6.37891 3.64538,-4.16614 7.55067,-7.37811 11.71679,-9.63476 6.59641,-3.64538 10.4155,-2.60343 11.45704,3.125 0.69435,3.4718 0.13128,7.0304 -1.69141,10.67578 -1.99627,3.99254 -4.68727,6.46516 -8.07227,7.41992 -1.6491,0.69435 -2.25625,1.78036 -1.82226,3.25586 0.43396,1.47553 1.51802,2.03859 3.2539,1.69141 4.68692,-0.95474 8.41985,-4.16475 11.19727,-9.63282 1.21514,-2.34345 2.03869,-4.81803 2.47266,-7.42187 0.43394,-2.60384 0.34778,-5.03436 -0.25977,-7.29102 -0.60757,-2.34345 -1.77974,-4.33917 -3.51562,-5.98828 -1.64911,-1.64908 -4.12369,-2.69101 -7.42188,-3.125 -0.20071,-0.0271 -0.40562,-0.0443 -0.61719,-0.0508 z m 73.6895,0 c -3.17346,-0.0966 -7.56715,2.13469 -13.18168,6.69141 -2.43027,1.99627 -4.64241,4.07817 -6.63868,6.24804 -1.99627,2.16988 -3.38681,3.73277 -4.16796,4.6875 -0.69435,0.86796 -1.17126,1.60535 -1.43165,2.2129 l -0.78125,1.5625 v -2.08204 l 0.13086,-4.16796 v -4.29493 c 0,-3.38497 -0.86763,-5.68524 -2.60351,-6.90039 -0.78115,-0.52077 -1.7369,-0.65101 -2.86524,-0.39062 -1.12831,0.26038 -2.5169,1.25823 -4.16601,2.99414 -1.64909,1.64908 -3.03768,3.77506 -4.16602,6.3789 -1.04153,2.60385 -1.95322,5.29485 -2.73437,8.07227 -0.17358,-2.86423 -0.47617,-5.68547 -0.91016,-8.46289 -0.34716,-2.77742 -1.04245,-5.1198 -2.08398,-7.0293 -2.43026,-4.16614 -6.50986,-4.86143 -12.23828,-2.08398 -1.38873,1.04154 -1.73537,2.16965 -1.04102,3.38476 0.26038,0.52075 0.65111,0.86937 1.17187,1.04297 0.60758,0.34706 1.12854,0.47731 1.5625,0.39063 0.43397,-0.0868 1.21541,-0.4775 2.34376,-1.17188 1.12834,-0.69435 1.99596,-0.82459 2.60351,-0.39062 1.82269,1.04154 2.99486,5.64206 3.51563,13.80078 0.1737,3.21139 0.30394,6.29116 0.39062,9.24219 0.0868,2.951 0.34729,5.12104 0.78125,6.50976 0.86796,1.82269 2.25655,2.2575 4.16602,1.30274 1.38872,-1.82269 2.38657,-3.94867 2.99414,-6.37891 0.60754,-2.43026 1.17063,-4.90484 1.6914,-7.42187 0.52077,-2.51704 1.21603,-4.99162 2.08399,-7.42188 0.86795,-2.51704 2.25655,-4.72918 4.16601,-6.63867 0.17356,3.5586 0.0874,7.16126 -0.25976,10.80664 -0.34729,3.64535 -0.30506,7.24609 0.1289,10.80469 0.17361,1.21511 0.65244,1.99656 1.4336,2.34375 0.86793,0.43384 1.82174,0.38991 2.86328,-0.13086 1.30192,-1.04154 2.60433,-2.90701 3.90625,-5.59766 0.52077,-1.04154 1.21407,-2.56037 2.08203,-4.55664 0.95473,-1.99627 2.47357,-4.12225 4.55664,-6.37891 3.64538,-4.16614 7.5526,-7.37811 11.71875,-9.63476 6.59636,-3.64538 10.41546,-2.60343 11.45706,3.125 0.6943,3.4718 0.1293,7.0304 -1.6934,10.67578 -1.9963,3.99254 -4.6873,6.46516 -8.07225,7.41992 -1.64909,0.69435 -2.25623,1.78036 -1.82227,3.25586 0.43397,1.47553 1.518,2.03859 3.25391,1.69141 4.68691,-0.95474 8.41981,-4.16475 11.19731,-9.63282 1.2151,-2.34345 2.0406,-4.81803 2.4746,-7.42187 0.4339,-2.60384 0.3458,-5.03436 -0.2618,-7.29102 -0.6075,-2.34345 -1.7797,-4.33917 -3.5156,-5.98828 -1.6491,-1.64908 -4.1217,-2.69101 -7.4199,-3.125 -0.2007,-0.0271 -0.4076,-0.0443 -0.6191,-0.0508 z m 27.2929,2.63867 c -0.8788,0.0326 -1.6114,0.60236 -2.1972,1.70899 -0.868,2.77745 -1.5613,5.64079 -2.0821,8.59179 -0.4339,2.86423 -0.999,5.72953 -1.6933,8.59376 v 0.1289 c -0.434,1.73591 -0.9109,3.5152 -1.4317,5.33789 -0.4339,1.73589 -0.8687,3.4731 -1.3027,5.20899 -0.434,1.82269 0.087,2.9508 1.5625,3.38476 1.4755,0.43399 2.5615,-0.17316 3.2559,-1.82226 1.3019,-4.68692 2.3859,-9.33153 3.2539,-13.93164 0.9547,-4.68692 2.0828,-9.37366 3.3847,-14.06055 0.1736,-1.56231 -0.4335,-2.56015 -1.8222,-2.99414 -0.3255,-0.10849 -0.6348,-0.15734 -0.9278,-0.14649 z M 835.875,665.125 c -1.0248,-0.0976 -1.83022,0.44071 -2.41602,1.61133 -1.82244,3.21121 -3.73253,7.33385 -5.72851,12.36719 -0.26036,0.69437 -0.47874,1.30152 -0.65235,1.82226 -0.0868,0.52077 -0.21701,1.12789 -0.39062,1.82227 -0.17361,0.60754 -0.47619,1.82379 -0.91016,3.64648 -0.43394,1.73591 -0.34778,3.47115 0.25977,5.20703 1.21514,3.64538 3.73182,5.29446 7.55078,4.94727 4.33973,-0.34719 8.94028,-4.1663 13.80078,-11.45703 -0.43396,3.73215 0.087,6.63958 1.5625,8.72265 1.82269,2.69065 5.94634,2.69065 12.36914,0 2.69065,-1.12831 6.76829,-3.25429 12.23633,-6.3789 0.95476,-1.30192 1.085,-2.51619 0.39063,-3.64453 -0.43397,-0.5209 -0.91088,-0.82544 -1.43165,-0.91211 -0.52076,-0.17358 -1.38839,0.0869 -2.60351,0.78125 -1.12834,0.60757 -3.42862,1.69355 -6.90039,3.25586 -1.21514,0.52076 -2.47347,1.03977 -3.77539,1.56054 -1.21512,0.60757 -2.47347,1.17259 -3.77539,1.69336 -1.30192,0.43409 -2.21361,0.38991 -2.73438,-0.13086 -0.43384,-0.60757 -0.60621,-1.5173 -0.51953,-2.73242 0.17358,-1.21512 0.47619,-2.64777 0.91016,-4.29687 0.43399,-1.64909 1.04111,-3.86318 1.82226,-6.64063 0.86793,-2.86423 1.08631,-4.81588 0.65235,-5.85742 -0.86796,-1.04154 -1.8237,-1.47634 -2.86524,-1.30274 -1.30192,0.52077 -2.56027,1.5627 -3.77539,3.125 -1.12834,1.47551 -3.12408,4.81771 -5.98828,10.0254 -3.73218,6.85676 -7.59535,9.67605 -11.58789,8.46093 -1.04154,-2.34346 -0.56463,-6.07443 1.43164,-11.19531 0.86793,-2.08307 1.77962,-4.08074 2.73438,-5.99023 1.04153,-1.90947 1.82298,-3.34017 2.34375,-4.29493 0.52079,-1.04151 0.60695,-1.86703 0.25976,-2.47461 -0.26038,-0.69435 -0.64915,-1.17125 -1.16992,-1.43164 -0.39058,-0.17359 -0.75786,-0.27604 -1.09961,-0.30859 z"
           style="font-weight:400;font-size:34.44663239px;line-height:5.25;font-family:Karumbi;-inkscape-font-specification:Karumbi;letter-spacing:0;word-spacing:0;fill:#ffffff;fill-opacity:1;stroke-width:2.43915606;paint-order:markers stroke fill" />
      </g>
      <g
         inkscape:label="asia"
         id="g15789"
         style="fill:#ffffff;fill-opacity:1">
        <path
           inkscape:label="teks-asia"
           inkscape:connector-curvature="0"
           style="font-weight:700;font-size:56.9995842px;line-height:5.25;font-family:'Source Sans Pro';-inkscape-font-specification:'Source Sans Pro Bold';letter-spacing:0;word-spacing:0;fill:#ffffff;fill-opacity:1;stroke-width:0.64536005"
           d="m 359.4633,138.33619 c -1.1451,0 -2.2002,0.1686 -3.1656,0.5054 -0.9431,0.3368 -1.7627,0.8082 -2.4588,1.4144 -0.6961,0.5838 -1.2352,1.2799 -1.617,2.0882 -0.3817,0.7859 -0.5725,1.6279 -0.5725,2.526 0,0.8083 0.1235,1.5379 0.3705,2.189 0.247,0.6287 0.5725,1.1902 0.9767,1.6841 0.4266,0.4716 0.8984,0.8867 1.4149,1.246 0.5388,0.3592 1.0887,0.6513 1.65,0.8759 l 2.8629,1.2123 c 0.4715,0.2021 0.8983,0.3929 1.28,0.5726 0.4042,0.1571 0.7408,0.3369 1.0103,0.539 0.2919,0.1796 0.505,0.3927 0.6397,0.6397 0.1572,0.247 0.2362,0.5391 0.2362,0.8759 0,0.6512 -0.2582,1.1676 -0.7746,1.5493 -0.494,0.3817 -1.2575,0.5726 -2.2904,0.5726 -0.9205,0 -1.8637,-0.2132 -2.8292,-0.6398 -0.9431,-0.4266 -1.8073,-0.9769 -2.5932,-1.6505 l -2.8292,3.4018 c 1.1226,1.0553 2.3914,1.8522 3.8059,2.3911 1.437,0.5164 2.8739,0.7746 4.3109,0.7746 1.3023,0 2.4698,-0.1797 3.5026,-0.539 1.0329,-0.3817 1.8976,-0.8753 2.5937,-1.4815 0.7185,-0.6287 1.2571,-1.3477 1.6164,-2.156 0.3817,-0.8307 0.5726,-1.7061 0.5726,-2.6267 0,-1.5493 -0.3929,-2.7957 -1.1788,-3.7388 -0.7634,-0.943 -1.819,-1.6837 -3.1662,-2.2226 l -2.8288,-1.1451 c -0.4715,-0.2021 -0.9094,-0.3818 -1.3136,-0.539 -0.4041,-0.1796 -0.7636,-0.3594 -1.0779,-0.539 -0.2919,-0.2021 -0.5274,-0.4152 -0.707,-0.6398 -0.1571,-0.2469 -0.2361,-0.5385 -0.2361,-0.8753 0,-0.6287 0.247,-1.1117 0.741,-1.4485 0.5164,-0.3593 1.2014,-0.539 2.0546,-0.539 0.8757,0 1.6726,0.1574 2.3911,0.4718 0.7185,0.2919 1.4375,0.7182 2.156,1.2795 l 2.5259,-3.1321 c -0.943,-0.9431 -2.0432,-1.6615 -3.3006,-2.1554 -1.2349,-0.494 -2.4925,-0.7411 -3.7724,-0.7411 z m -22.4983,0.4041 -6.8704,21.9594 h 5.0519 l 1.3472,-5.2203 h 6.7024 l 1.3472,5.2203 h 5.254 l -6.8709,-21.9594 z m 33.9493,0 v 21.9594 h 4.9511 v -21.9594 z m 14.2131,0 -6.8709,21.9594 h 5.0519 l 1.3472,-5.2203 h 6.7024 l 1.3473,5.2203 h 5.2539 l -6.8704,-21.9594 z m -45.3667,3.7724 h 0.1349 c 0.2918,1.1451 0.5835,2.3349 0.8754,3.5698 0.2918,1.2349 0.5951,2.4024 0.9095,3.5026 l 0.5048,2.0211 h -4.6813 l 0.539,-2.0211 c 0.3143,-1.1002 0.6059,-2.2565 0.8754,-3.469 0.2919,-1.2349 0.5728,-2.4358 0.8423,-3.6034 z m 48.1619,0 h 0.1349 c 0.2919,1.1451 0.584,2.3349 0.8759,3.5698 0.2919,1.2349 0.5946,2.4024 0.909,3.5026 l 0.5054,2.0211 h -4.6814 l 0.5385,-2.0211 c 0.3143,-1.1002 0.6064,-2.2565 0.8759,-3.469 0.2919,-1.2349 0.5724,-2.4358 0.8418,-3.6034 z m -69.2376,8.3261 c -1.444,0 -2.6604,0.5129 -3.6484,1.5389 -0.95,0.988 -1.4247,2.2421 -1.4247,3.7621 0,1.482 0.4747,2.736 1.4247,3.762 0.988,0.988 2.2044,1.4821 3.6484,1.4821 1.444,0 2.641,-0.4941 3.591,-1.4821 0.988,-1.026 1.482,-2.28 1.482,-3.762 0,-1.52 -0.494,-2.7741 -1.482,-3.7621 -0.95,-1.026 -2.147,-1.5389 -3.591,-1.5389 z"
           id="path15787" />
      </g>
      <g
         inkscape:label="GNOME"
         id="g15793"
         style="fill:#ffffff;fill-opacity:1">
        <path
           inkscape:label="teks-gnome"
           id="path15791"
           d="m 312.89771,127.78232 v 0.59738 h 1.86191 v 4.64881 h 0.71365 v -4.64881 h 1.8619 v -0.59738 z m 5.18212,0 v 5.24619 h 0.68833 v -4.60644 l 1.35289,3.59771 h 0.71313 l 1.35289,-3.59771 v 4.60644 h 0.69195 v -5.24619 h -1.0573 l -1.34566,3.56981 -1.33893,-3.56981 z m -124.54848,5.08444 c -4.01292,0 -7.17218,1.27136 -9.47642,3.81166 -2.30857,2.54029 -3.46077,6.02696 -3.46077,10.45569 0,4.38108 1.1303,7.85695 3.39772,10.42107 2.26526,2.55112 5.3338,3.82871 9.2103,3.82871 1.92525,0 6.54463,0.0282 9.64798,-2.57918 l 0.002,-13.21883 h -9.35085 v 4.75113 h 4.82503 v 4.75785 c -0.73415,0.59122 -2.11383,1.15239 -4.34444,1.15239 -2.19595,0 -4.06916,-0.79032 -5.3144,-2.37557 -1.24524,-1.58092 -1.87121,-3.82705 -1.87121,-6.7355 0,-2.93444 0.6457,-5.18445 1.93425,-6.7567 1.29722,-1.58308 3.14213,-2.37556 5.533,-2.37556 a 12.01929,12.01929 0 0 1 3.84834,0.64544 16.437191,16.437191 0 0 1 2.26756,1.03714 l 1.61334,-4.77542 a 16.768533,16.768533 0 0 0 -4.02146,-1.52445 c -1.41199,-0.3465 -2.89377,-0.51987 -4.44004,-0.51987 z m 49.13654,0.003 c -3.52566,0.0975 -6.31058,1.36424 -8.35711,3.79408 -2.12016,2.5273 -3.18379,6.0202 -3.18379,10.47275 0,4.44389 1.06363,7.93056 3.18379,10.45569 2.13099,2.52947 5.05412,3.79202 8.78551,3.79202 3.74006,0 6.67052,-1.26255 8.79068,-3.79202 2.12016,-2.5273 3.17913,-6.0118 3.17913,-10.45569 0,-4.45255 -1.05907,-7.94535 -3.17707,-10.47482 -2.12232,-2.52729 -5.05268,-3.78995 -8.79274,-3.78995 -0.1451,0 -0.28763,-0.004 -0.4284,0 z m -35.7203,0.49764 v 27.48205 h 5.10666 v -16.51734 l 11.9631,16.51734 h 3.78995 v -27.48211 h -5.10667 v 16.51527 l -11.96309,-16.51527 h -3.7853 z m 53.22518,0 -2.91714,27.48205 h 5.68906 l 1.74976,-17.76894 5.35988,17.8511 h 3.80287 l 5.36453,-17.26664 1.7477,17.18448 h 5.67356 l -2.91714,-27.48211 h -6.45542 l -5.32784,17.15864 -5.30149,-17.15864 z m 30.56557,0 v 27.48205 h 16.53698 v -5.35575 h -10.53579 v -6.29522 h 7.83518 v -4.77342 h -7.83312 v -5.70197 h 10.19163 v -5.35575 z m -47.81052,4.63486 h 0.16847 c 1.84079,0 3.26394,0.79871 4.27312,2.39262 1.00702,1.59608 1.51567,3.84615 1.51567,6.74378 0,2.88463 -0.50865,5.11772 -1.51567,6.7138 -1.00918,1.59607 -2.43666,2.39934 -4.27312,2.39934 -1.82997,0 -3.24398,-0.80336 -4.24884,-2.39728 -1.00918,-1.59607 -1.51567,-3.8333 -1.51567,-6.71793 0,-2.89546 0.50649,-5.14554 1.51567,-6.74377 0.97454,-1.54411 2.33487,-2.34085 4.08037,-2.38849 z"
           style="font-weight:700;font-size:148.69999695px;line-height:125%;font-family:'Bitstream Vera Sans';text-align:start;fill:#ffffff;fill-opacity:1;stroke-width:7.71400166"
           inkscape:connector-curvature="0" />
      </g>
    </g>
  </g>
</svg>
