<?xml version="1.0" encoding="UTF-8" standalone="no"?>
<!-- Created with Inkscape (http://www.inkscape.org/) -->

<svg
   xmlns:dc="http://purl.org/dc/elements/1.1/"
   xmlns:cc="http://creativecommons.org/ns#"
   xmlns:rdf="http://www.w3.org/1999/02/22-rdf-syntax-ns#"
   xmlns:svg="http://www.w3.org/2000/svg"
   xmlns="http://www.w3.org/2000/svg"
   xmlns:sodipodi="http://sodipodi.sourceforge.net/DTD/sodipodi-0.dtd"
   xmlns:inkscape="http://www.inkscape.org/namespaces/inkscape"
   width="1920"
   height="1080"
   viewBox="0 0 508.00003 285.75001"
   version="1.1"
   id="svg8"
   inkscape:version="0.92.3 (2405546, 2018-03-11)"
   sodipodi:docname="master-default-2.svg"
   style="enable-background:new">
  <defs
     id="defs2" />
  <sodipodi:namedview
     id="base"
     pagecolor="#ffffff"
     bordercolor="#666666"
     borderopacity="1.0"
     inkscape:pageopacity="0.0"
     inkscape:pageshadow="2"
     inkscape:zoom="0.31120064"
     inkscape:cx="1193.9132"
     inkscape:cy="514.13163"
     inkscape:document-units="px"
     inkscape:current-layer="layer2"
     showgrid="false"
     units="px"
     borderlayer="true"
     inkscape:pagecheckerboard="true"
     inkscape:window-width="1366"
     inkscape:window-height="703"
     inkscape:window-x="0"
     inkscape:window-y="0"
     inkscape:window-maximized="1"
     inkscape:snap-global="true"
     inkscape:snap-text-baseline="true"
     inkscape:snap-page="true">
    <inkscape:grid
       type="axonomgrid"
       id="grid824"
       units="mm"
       empspacing="5" />
  </sodipodi:namedview>
  <metadata
     id="metadata5">
    <rdf:RDF>
      <cc:Work
         rdf:about="">
        <dc:format>image/svg+xml</dc:format>
        <dc:type
           rdf:resource="http://purl.org/dc/dcmitype/StillImage" />
        <dc:title />
        <dc:date />
        <dc:creator>
          <cc:Agent>
            <dc:title />
          </cc:Agent>
        </dc:creator>
        <dc:subject>
          <rdf:Bag />
        </dc:subject>
        <dc:description />
        <cc:license
           rdf:resource="" />
      </cc:Work>
    </rdf:RDF>
  </metadata>
  <g
     inkscape:label="background"
     inkscape:groupmode="layer"
     id="layer1"
     transform="translate(0,-11.249954)"
     sodipodi:insensitive="true">
    <path
       transform="translate(0,-443.83335)"
       style="display:inline;opacity:1;vector-effect:none;fill:#4a88cf;fill-opacity:1;fill-rule:nonzero;stroke:none;stroke-width:0.4665426;stroke-linecap:butt;stroke-linejoin:miter;stroke-miterlimit:4;stroke-dasharray:none;stroke-dashoffset:0;stroke-opacity:1;paint-order:stroke fill markers;enable-background:new"
       d="M -6e-6,455.08327 H 508.00001 V 740.8333 H -6e-6 Z"
       id="rect818"
       inkscape:connector-curvature="0" />
  </g>
  <g
     inkscape:groupmode="layer"
     id="layer2"
     inkscape:label="artwork"
     transform="translate(0,-455.08329)">
    <path
       style="color:#000000;font-style:normal;font-variant:normal;font-weight:normal;font-stretch:normal;font-size:medium;line-height:normal;font-family:sans-serif;font-variant-ligatures:normal;font-variant-position:normal;font-variant-caps:normal;font-variant-numeric:normal;font-variant-alternates:normal;font-feature-settings:normal;text-indent:0;text-align:start;text-decoration:none;text-decoration-line:none;text-decoration-style:solid;text-decoration-color:#000000;letter-spacing:normal;word-spacing:normal;text-transform:none;writing-mode:lr-tb;direction:ltr;text-orientation:mixed;dominant-baseline:auto;baseline-shift:baseline;text-anchor:start;white-space:normal;shape-padding:0;clip-rule:nonzero;display:inline;overflow:visible;visibility:visible;opacity:1;isolation:auto;mix-blend-mode:normal;color-interpolation:sRGB;color-interpolation-filters:linearRGB;solid-color:#000000;solid-opacity:1;vector-effect:none;fill:#a1c1e6;fill-opacity:1;fill-rule:nonzero;stroke:none;stroke-width:9.21882439;stroke-linecap:butt;stroke-linejoin:miter;stroke-miterlimit:4;stroke-dasharray:none;stroke-dashoffset:0;stroke-opacity:1;color-rendering:auto;image-rendering:auto;shape-rendering:auto;text-rendering:auto;enable-background:accumulate"
       d="M 498.7396,640.29163 V 740.8333 h 9.26041 V 640.29163 Z"
       id="path817"
       inkscape:connector-curvature="0" />
    <path
       style="color:#000000;font-style:normal;font-variant:normal;font-weight:normal;font-stretch:normal;font-size:medium;line-height:normal;font-family:sans-serif;font-variant-ligatures:normal;font-variant-position:normal;font-variant-caps:normal;font-variant-numeric:normal;font-variant-alternates:normal;font-feature-settings:normal;text-indent:0;text-align:start;text-decoration:none;text-decoration-line:none;text-decoration-style:solid;text-decoration-color:#000000;letter-spacing:normal;word-spacing:normal;text-transform:none;writing-mode:lr-tb;direction:ltr;text-orientation:mixed;dominant-baseline:auto;baseline-shift:baseline;text-anchor:start;white-space:normal;shape-padding:0;clip-rule:nonzero;display:inline;overflow:visible;visibility:visible;opacity:1;isolation:auto;mix-blend-mode:normal;color-interpolation:sRGB;color-interpolation-filters:linearRGB;solid-color:#000000;solid-opacity:1;vector-effect:none;fill:#d8e5f5;fill-opacity:1;fill-rule:nonzero;stroke:none;stroke-width:9.2389698;stroke-linecap:butt;stroke-linejoin:miter;stroke-miterlimit:4;stroke-dasharray:none;stroke-dashoffset:0;stroke-opacity:1;color-rendering:auto;image-rendering:auto;shape-rendering:auto;text-rendering:auto;enable-background:accumulate"
       d="M 0,455.08329 V 740.8333 H 9.260417 V 455.08329 Z"
       id="path815"
       inkscape:connector-curvature="0" />
    <g
       id="g912"
       transform="matrix(0.04696884,0,0,0.04696884,438.9272,469.03232)"
       style="fill:#ffffff;enable-background:new">
      <path
         id="path886"
         d="m 289.156,17.725 c -77.587,0 -92.14,110.508 -48.494,110.508 43.64,0 126.084,-110.508 48.494,-110.508 z m -128.83,96.815 c 23.239,1.419 48.736,-88.688 5.058,-83.02 -43.662,5.666 -28.307,81.6 -5.058,83.02 z M 53.82,170.53 c 16.528,-7.276 2.129,-78.438 -25.977,-59.03 -28.093,19.41 9.449,66.302 25.977,59.03 z m 46.57,-37.248 C 120.066,129.27 121.144,48.562 86.057,63.04 50.963,77.522 80.73,137.3 100.39,133.282 Z m 102.743,180.613 c 3.492,26.661 -19.559,39.828 -42.133,22.64 -71.862,-54.713 118.985,-82.008 106.405,-156.756 -10.442,-62.045 -200.813,-42.943 -222.49,54.14 -14.675,65.662 60.401,156.758 138.738,156.758 38.538,0 82.989,-34.797 91.305,-78.88 6.352,-33.614 -74.739,-20.145 -71.825,2.098 z"
         inkscape:connector-curvature="0"
         style="fill:#ffffff" />
      <g
         id="g896"
         style="font-family:'Bitstream Vera Sans';fill:#ffffff">
        <path
           id="path888"
           font-weight="700"
           font-size="148.7"
           style="font-weight:700;font-size:148.69999695px;line-height:125%;text-align:start;fill:#ffffff"
           d="m 685.48,148.328 c -19.537,0.526 -34.966,7.548 -46.313,21.015 -11.75,14.014 -17.66,33.379 -17.66,58.074 0,24.627 5.91,43.939 17.66,57.953 11.808,14.015 28.02,21.015 48.698,21.015 20.736,0 36.989,-7 48.739,-21.015 11.75,-14.014 17.62,-33.326 17.62,-57.953 0,-24.695 -5.87,-44.06 -17.62,-58.074 -11.75,-14.015 -28.003,-21.015 -48.739,-21.015 -0.808,0 -1.59,-0.022 -2.384,0 z m 1.456,28.45 c 0.312,-0.008 0.612,0 0.93,0 10.194,0 18.094,4.413 23.682,13.256 5.587,8.845 8.405,21.328 8.406,37.383 0,15.987 -2.82,28.377 -8.406,37.221 -5.588,8.844 -13.488,13.296 -23.683,13.296 -10.138,0 -17.974,-4.452 -23.56,-13.296 -5.588,-8.844 -8.407,-21.234 -8.407,-37.22 0,-16.056 2.82,-28.54 8.406,-37.384 5.413,-8.567 12.948,-12.987 22.632,-13.255 z M 464.768,292.099 c -17.21,14.453 -42.814,14.287 -53.481,14.287 -21.485,0 -38.506,-7.076 -51.063,-21.226 -12.557,-14.219 -18.835,-33.472 -18.835,-57.759 0,-24.56 6.394,-43.88 19.18,-57.963 12.788,-14.082 30.298,-21.123 52.532,-21.123 8.582,0 16.79,0.952 24.624,2.857 7.891,1.905 15.322,4.728 22.291,8.47 l -8.95,26.46 c -3.918,-2.145 -8.405,-4.258 -12.563,-5.745 -7.085,-2.38 -14.199,-3.571 -21.341,-3.571 -13.248,0 -23.472,4.388 -30.672,13.164 -7.143,8.708 -10.714,21.192 -10.714,37.451 0,16.124 3.456,28.573 10.368,37.35 6.912,8.775 17.3,13.163 29.463,13.163 12.356,0 20.01,-3.114 24.091,-6.396 v -26.36 h -26.77 v -26.329 h 51.84 m 22.737,-67.759 h 20.987 l 66.314,91.564 V 151.07 h 28.303 v 152.356 h -20.987 l -66.314,-91.564 v 91.564 H 487.505 V 151.07 m 288.554,0 h 42.336 l 29.376,95.115 29.549,-95.115 h 35.783 l 16.166,152.356 h -31.45 l -9.7,-95.27 -29.72,95.727 h -21.083 l -29.721,-98.96 -9.7,98.503 H 766.36 L 782.525,151.07 m 169.445,0 h 89.769 v 29.696 h -56.506 v 31.602 h 43.437 v 26.462 h -43.437 v 34.9 h 58.407 v 29.696 H 951.97 V 151.07"
           inkscape:connector-curvature="0" />
        <text
           id="text894"
           transform="matrix(1.29323,0,0,1.29323,-4715.452,-1422.229)"
           font-weight="400"
           font-size="30.69"
           y="1215.743"
           x="4474.6182"
           style="font-weight:400;font-size:30.69000053px;fill:#ffffff;stroke-width:1.00000003pt">
          <tspan
             id="tspan892"
             letter-spacing="11.063"
             y="1215.743"
             x="4474.6182"
             style="letter-spacing:11.06299973;fill:#ffffff">
            <tspan
               id="tspan890"
               letter-spacing=".252"
               style="letter-spacing:0.252;fill:#ffffff">TM</tspan>
          </tspan>
        </text>
      </g>
    </g>
  </g>
</svg>
