<?xml version="1.0" encoding="UTF-8" standalone="no"?>
<!-- Created with Inkscape (http://www.inkscape.org/) -->

<svg
   xmlns:dc="http://purl.org/dc/elements/1.1/"
   xmlns:cc="http://creativecommons.org/ns#"
   xmlns:rdf="http://www.w3.org/1999/02/22-rdf-syntax-ns#"
   xmlns:svg="http://www.w3.org/2000/svg"
   xmlns="http://www.w3.org/2000/svg"
   xmlns:sodipodi="http://sodipodi.sourceforge.net/DTD/sodipodi-0.dtd"
   xmlns:inkscape="http://www.inkscape.org/namespaces/inkscape"
   width="200mm"
   height="200mm"
   viewBox="0 0 200 200.00001"
   version="1.1"
   id="svg8"
   inkscape:version="0.92.4 5da689c313, 2019-01-14"
   sodipodi:docname="fish.svg"
   style="enable-background:new"
   inkscape:export-filename="./fish.png"
   inkscape:export-xdpi="300"
   inkscape:export-ydpi="300">
  <defs
     id="defs2">
    <clipPath
       clipPathUnits="userSpaceOnUse"
       id="clipPath5515-3">
      <path
         style="fill:#000000;fill-opacity:1;fill-rule:evenodd;stroke:none"
         d="m 967.08698,534.83804 c -9.58634,-0.075 -17.10153,8.08997 -17.18524,17.94527 -0.12174,13.84814 8.12352,18.30146 31.52494,37.61473 22.35732,-20.76057 31.25652,-26.35014 31.36782,-38.02192 0.1217,-12.76756 -18.38665,-25.17602 -31.85486,-11.71345 -4.70977,-4.05404 -9.49526,-5.79056 -13.85266,-5.82463 z m 22.21899,12.3122 c 5.39315,0 -0.33727,7.68143 -3.37066,7.68143 -3.03382,0 -2.02228,-7.68143 3.37066,-7.68143 z m -8.33239,0.9412 c 2.6547,0.009 0.94261,5.88366 -0.62224,5.78808 -1.61599,-0.0987 -2.68361,-5.37642 0.35131,-5.77033 0.0949,-0.0123 0.18529,-0.018 0.27093,-0.0177 z m -5.16429,2.09014 c 1.79282,0.11707 1.61528,4.74821 0.37586,5.00088 -1.36656,0.27928 -3.43587,-3.8758 -0.99652,-4.8824 0.22863,-0.0943 0.4352,-0.13059 0.62066,-0.11848 z m -3.9814,3.25528 c 1.48461,0.0499 2.1255,3.8923 1.12023,4.33479 -1.14886,0.50549 -3.75833,-2.7538 -1.80562,-4.10301 0.2442,-0.16865 0.4733,-0.23891 0.68539,-0.23178 z m 11.15127,2.49366 c 2.51178,0.0425 4.54288,0.86647 4.81504,2.48373 0.87443,5.19567 -12.39148,7.09297 -7.3964,10.896 1.56909,1.19468 3.17168,0.27983 2.92902,-1.57334 -0.20256,-1.54609 5.43349,-2.48272 4.99201,-0.14618 -0.57805,3.06407 -3.66741,5.48272 -6.34611,5.48272 -5.44511,0 -10.66366,-6.33189 -9.6437,-10.896 0.94179,-4.21753 6.46381,-6.31775 10.65014,-6.24693 z"
         id="path5517-6"
         inkscape:connector-curvature="0" />
    </clipPath>
  </defs>
  <sodipodi:namedview
     id="base"
     pagecolor="#ffffff"
     bordercolor="#666666"
     borderopacity="1.0"
     inkscape:pageopacity="0.0"
     inkscape:pageshadow="2"
     inkscape:zoom="0.72760417"
     inkscape:cx="377.95276"
     inkscape:cy="377.95276"
     inkscape:document-units="mm"
     inkscape:current-layer="layer2"
     showgrid="false"
     units="mm"
     borderlayer="true"
     inkscape:pagecheckerboard="true"
     inkscape:window-width="1366"
     inkscape:window-height="704"
     inkscape:window-x="0"
     inkscape:window-y="27"
     inkscape:window-maximized="1"
     inkscape:snap-global="false">
    <inkscape:grid
       type="xygrid"
       id="grid815"
       dotted="false"
       originx="0"
       originy="-2.5098283e-05" />
  </sodipodi:namedview>
  <metadata
     id="metadata5">
    <rdf:RDF>
      <cc:Work
         rdf:about="">
        <dc:format>image/svg+xml</dc:format>
        <dc:type
           rdf:resource="http://purl.org/dc/dcmitype/StillImage" />
        <dc:title />
        <dc:date />
        <dc:creator>
          <cc:Agent>
            <dc:title />
          </cc:Agent>
        </dc:creator>
        <dc:subject>
          <rdf:Bag />
        </dc:subject>
        <dc:description />
        <cc:license
           rdf:resource="" />
      </cc:Work>
    </rdf:RDF>
  </metadata>
  <g
     inkscape:label="background"
     inkscape:groupmode="layer"
     id="layer1"
     transform="translate(0,-96.99996)"
     sodipodi:insensitive="true"
     style="display:none">
    <path
       style="opacity:1;vector-effect:none;fill:#ffffff;fill-opacity:1;fill-rule:nonzero;stroke:none;stroke-width:0.24490425;stroke-linecap:butt;stroke-linejoin:miter;stroke-miterlimit:4;stroke-dasharray:none;stroke-dashoffset:0;stroke-opacity:1;paint-order:stroke fill markers"
       d="M 0,96.999969 H 200 V 296.99997 H 0 Z"
       id="rect818"
       inkscape:connector-curvature="0" />
  </g>
  <g
     inkscape:groupmode="layer"
     id="layer2"
     inkscape:label="artwork"
     transform="translate(0,-540.8333)">
    <path
       style="fill:#ffffff;fill-opacity:1;stroke:#ffffff;stroke-width:58.45097432;stroke-linecap:round;stroke-linejoin:round;stroke-opacity:1;font-variant-east_asian:normal;opacity:1;vector-effect:none;stroke-miterlimit:4;stroke-dasharray:none;stroke-dashoffset:0"
       d="M 136.22852 94.076172 C 126.93663 94.124169 124.83203 96.695312 124.83203 96.695312 C 124.83203 96.695312 127.25554 118.18012 111.42773 155.40234 C 111.42413 155.40665 111.42158 155.41171 111.41797 155.41602 C 110.30686 158.02994 109.3521 160.50835 108.05078 163.27734 C 98.058364 184.5393 97.282027 206.49817 98.966797 223.07227 C 99.582909 222.82357 100.19012 222.56993 100.82812 222.33008 C 112.84371 217.81392 118.5548 216.01623 124.00977 214.28906 C 124.18283 212.52179 124.19158 210.79823 124.49609 209.01758 C 125.1823 205.01086 126.22863 201.00493 127.75 197.16406 C 128.50866 195.24229 129.39139 193.36359 130.4043 191.54492 C 131.4167 189.72591 132.56334 187.97093 133.85547 186.29297 C 135.14759 184.61501 136.58974 183.01965 138.19727 181.52734 C 139.80017 180.03205 141.5689 178.63817 143.51367 177.36719 C 147.40329 174.82512 151.55363 172.37432 155.83789 170.02734 C 160.12216 167.68033 164.54143 165.43914 168.96875 163.32227 C 177.82343 159.08855 186.71262 155.34924 194.62891 152.24609 C 202.5457 149.14329 209.48806 146.67605 214.45312 144.98438 C 219.41819 143.2927 222.4082 142.37695 222.4082 142.37695 C 222.40822 142.37696 222.41406 142.38086 222.41406 142.38086 C 222.41406 142.38086 219.42549 143.29825 214.46094 144.99023 C 209.49587 146.68191 202.55301 149.14686 194.63672 152.25 C 186.71992 155.3528 177.83124 159.09437 168.97656 163.32812 C 164.54924 165.44496 160.12798 167.68431 155.84375 170.03125 C 151.55949 172.37826 147.4111 174.83097 143.52148 177.37305 C 141.57671 178.64403 139.81003 180.03732 138.20508 181.53125 C 136.60214 183.02658 135.15601 184.62058 133.86133 186.29688 C 132.5641 187.97147 131.42451 189.73177 130.41211 191.55078 C 129.39971 193.36979 128.51596 195.24777 127.75781 197.16992 C 126.23695 201.01113 125.19011 205.01481 124.50391 209.02148 C 124.1989 210.80179 124.19062 212.52765 124.01758 214.29492 C 132.43966 211.62782 136.88672 210.50391 136.88672 210.50391 C 136.88672 210.50391 131.07814 214.49434 123.49219 220.01562 C 123.4816 220.29871 123.41716 220.60632 123.4082 220.88672 C 123.34697 223.72866 123.51976 226.336 123.67578 228.93945 C 131.59334 221.9886 141.57816 215.38141 153.2168 212.69727 C 117.13649 252.50786 90.306313 302.21259 81.320312 335.13477 C 68.228399 383.09686 76.592036 425.42512 84.892578 457.84375 C 90.931001 481.42838 98.5416 493.4475 102.26562 498.29883 C 100.58581 503.71024 99.607724 509.667 99.824219 516.13086 C 100.90582 548.46593 117.0332 573.48047 117.0332 573.48047 C 117.0332 573.48047 123.09803 564.24624 131.92383 557.70898 C 138.77314 552.61883 147.23191 549.10426 156.0293 553.05273 C 170.31329 559.4637 175.19556 552.65961 171.62109 540.0957 C 184.87327 550.64168 192.30889 556.91868 195.23242 563.46094 C 199.93984 573.99437 198.01953 576.91602 198.01953 576.91602 C 201.8277 598.02033 196.00833 598.38488 212.11719 636.87109 C 227.96518 674.73406 265.55854 714.23144 271.57227 711.57031 C 269.84243 707.57467 268.16231 703.83092 266.30078 699.08984 C 263.41185 691.73137 260.45323 683.56489 257.69727 674.86914 C 254.94182 666.17373 252.3886 656.94928 250.31445 647.47461 C 249.27711 642.73712 248.35794 637.93505 247.59375 633.10742 C 246.8301 628.2801 246.21968 623.42639 245.79688 618.57812 C 245.37461 613.73016 245.14301 608.89051 245.13086 604.0918 C 245.11876 599.29316 245.32633 594.53299 245.79297 589.85352 C 246.25965 585.17397 246.98234 580.5729 247.99609 576.08203 C 249.00982 571.59123 250.31385 567.21271 251.94336 562.98047 C 253.5724 558.74781 255.28685 554.79987 257.06445 551.11914 C 258.84052 547.43739 260.68235 544.0252 262.57422 540.85742 C 263.46451 539.36613 264.36628 537.93461 265.2793 536.55273 C 264.3721 537.93885 263.47613 539.3755 262.59766 540.875 C 260.7063 544.04311 258.86654 547.45659 257.08789 551.13672 C 255.31183 554.81847 253.59634 558.76378 251.9668 562.99609 C 250.33779 567.22867 249.03328 571.60874 248.01953 576.09961 C 247.00581 580.59041 246.28309 585.19159 245.81641 589.87109 C 245.35024 594.55098 245.14262 599.31108 245.1543 604.10938 C 245.16677 608.90843 245.39801 613.74778 245.82031 618.5957 C 246.24261 623.44363 246.85498 628.29733 247.61914 633.125 C 248.38279 637.95233 249.30055 642.75474 250.33789 647.49219 C 252.41204 656.9669 254.96474 666.19097 257.7207 674.88672 C 260.47615 683.58216 263.43531 691.74692 266.32422 699.10547 C 268.18527 703.84613 269.86638 707.59255 271.5957 711.58789 C 271.69662 711.54518 271.85865 711.58677 271.93945 711.51953 C 276.97806 707.38843 267.5172 663.03396 265.89453 614.53125 C 264.27186 566.0285 283.79447 535.60377 300.35742 513.92969 C 303.96294 509.20791 306.7224 505.61831 309.00977 502.46875 C 309.01172 502.46823 309.01351 502.46928 309.01562 502.46875 C 313.95043 495.67917 315.64441 491.82107 311.55859 489.31445 L 311.53125 489.29492 C 308.81298 487.62751 303.66384 486.45253 295.50195 485.16016 C 275.74821 482.03248 254.94022 496.28643 233.10547 490.54688 C 230.90928 489.96954 228.70328 489.1919 226.48633 488.17383 C 226.48424 488.17287 226.48256 488.17088 226.48047 488.16992 C 226.03874 487.96698 225.59489 487.7555 225.15234 487.5332 C 225.15028 487.53216 225.14855 487.53034 225.14648 487.5293 C 224.7039 487.30689 224.26176 487.07637 223.81836 486.83398 C 223.81633 486.83287 223.81453 486.83119 223.8125 486.83008 C 223.36877 486.58742 222.92502 486.3336 222.48047 486.07031 C 222.03222 485.80475 221.58385 485.52936 221.13477 485.24219 C 220.60375 484.90273 220.07125 484.54251 219.53906 484.17188 C 219.17538 483.91852 218.81149 483.66286 218.44727 483.39453 C 217.99992 483.06503 217.55168 482.72374 217.10352 482.37109 C 217.1021 482.36998 217.10103 482.36831 217.09961 482.36719 C 217.00707 482.29435 216.91484 482.21446 216.82227 482.14062 C 216.015 481.49663 215.20642 480.82191 214.39648 480.09961 C 213.94692 479.69877 213.49726 479.2852 213.04688 478.85938 C 213.04522 478.85781 213.04267 478.85703 213.04102 478.85547 C 212.59057 478.42949 212.14072 477.99066 211.68945 477.53906 C 197.34863 463.18498 193.21191 443.20765 192.75781 426.35742 L 192.75195 426.35547 C 192.75161 426.34258 192.75034 426.32929 192.75 426.31641 C 208.67016 417.54225 230.70167 408.58851 261.00391 400.00586 C 257.17178 407.96881 258.608 415.94906 267.39062 425.30078 C 281.0732 439.86995 262.42775 440.64357 289.19727 461.48438 C 315.10069 481.65095 322.3524 473.81747 333.05664 445.48438 C 354.05281 454.66158 357.57761 446.3449 360.90234 422.32812 C 363.12424 406.27789 359.07676 387.07821 355.85547 375.26562 C 503.40357 334.8827 651.95129 282.71864 681.38867 263.67969 C 715.69503 241.49239 712.9186 218.61627 683.80664 219.88086 C 654.7204 221.14397 648.43902 224.72012 648.42773 224.72656 C 648.43005 224.70714 649.41888 216.50363 668.87109 194.67578 C 688.34432 172.82074 693.41459 161.29655 686.29688 155.0957 C 686.29688 155.0957 686.29492 155.0957 686.29492 155.0957 L 686.29297 155.09375 C 685.808 154.67202 685.17721 154.31769 684.44141 154.01172 C 672.0963 146.87567 591.44835 103.04388 466.36719 99.410156 C 366.53129 96.510163 307.4948 114.40036 258.55469 138.61719 C 239.31521 128.26117 202.81868 109.65036 173.34375 100.93945 C 155.03059 95.527307 143.45553 94.03884 136.22852 94.076172 z M 123.48828 220.01367 C 116.60825 225.02166 108.28259 231.26673 101.18359 237.36719 C 102.87855 245.50512 104.68359 250.51367 104.68359 250.51367 C 104.68359 250.51367 111.81959 239.34982 123.67383 228.93945 C 123.51728 226.33566 123.34502 223.72671 123.40625 220.88477 C 123.41041 220.60055 123.47766 220.29665 123.48828 220.01367 z M 639.55664 227.25586 C 639.55661 227.25595 639.55079 227.26757 639.55078 227.26758 L 639.54688 227.26953 C 639.54688 227.26953 639.55662 227.25589 639.55664 227.25586 z M 130.17969 503.53125 C 130.18231 503.5316 130.18488 503.53286 130.1875 503.5332 C 131.84692 506.01786 133.79699 508.45905 136.08203 510.82422 C 136.47701 511.23305 136.88545 511.63878 137.30078 512.04297 C 136.885 511.63901 136.47763 511.2328 136.08203 510.82422 C 135.67771 510.40663 135.28017 509.98852 134.89648 509.56641 C 133.21007 507.71096 131.72182 505.81408 130.41211 503.88867 C 130.33139 503.77003 130.25847 503.65018 130.17969 503.53125 z M 137.51367 512.25391 C 137.81505 512.54409 138.13119 512.83152 138.44336 513.11914 C 138.13074 512.83144 137.81559 512.54416 137.51367 512.25391 z M 148.82617 521.81836 C 149.58956 522.44322 150.353 523.07128 151.0957 523.67578 C 150.35783 523.07545 149.59479 522.44754 148.82617 521.81836 z M 155.07617 526.88867 C 156.7194 528.21349 158.30596 529.48759 159.83984 530.71289 C 158.30865 529.49304 156.74324 528.23072 155.07617 526.88867 z "
       transform="matrix(0.26458333,0,0,0.26458333,0,540.8333)"
       id="path875" />
    <g
       id="g3941-8"
       transform="matrix(1.3495065,0.88651689,-0.88651689,1.3495065,-313.94188,26.358233)"
       style="display:inline">
      <path
         style="fill:#79a6db;fill-opacity:1;stroke:none;stroke-width:0.26458332px;stroke-linecap:butt;stroke-linejoin:miter;stroke-opacity:1"
         d="m 418.49185,177.72728 c 0,0 4.597,3.4419 6.3822,7.19812 1.7852,3.75622 1.9961,5.17703 -2.2728,5.76095 -4.2688,0.58393 -2.6852,-1.18063 -5.2231,-1.23002 -2.5379,-0.0494 -3.1934,-1.42312 -3.1236,-3.86687 0.07,-2.44372 4.2373,-7.86218 4.2373,-7.86218 z"
         id="path3916-1"
         inkscape:connector-curvature="0" />
      <path
         style="fill:#4a88cf;fill-opacity:1;stroke:none;stroke-width:0.26458332px;stroke-linecap:butt;stroke-linejoin:miter;stroke-opacity:1"
         d="m 416.42555,177.52367 c 0,0 4.5932,2.73443 6.3678,6.44239 1.7746,3.70796 1.5468,4.97222 1.5468,4.97222 0,0 -1.6077,-4.09878 -3.2042,-6.07517 -1.5965,-1.9764 -3.1632,-2.89689 -3.1632,-2.89689 0,0 2.7764,3.4372 3.4028,5.82914 0.6264,2.39193 0.4564,4.14942 0.4564,4.14942 0,0 -0.9963,-4.53669 -2.9881,-6.93214 -1.9917,-2.39545 -1.9917,-2.39545 -1.9917,-2.39545 0,0 2.0342,2.5885 2.2314,5.3277 0.1972,2.7392 -0.034,3.29599 -0.034,3.29599 0,0 -0.029,-3.58556 -1.5776,-5.57256 -1.5483,-1.98698 -1.5483,-1.98698 -1.5483,-1.98698 z"
         id="path3918-0"
         inkscape:connector-curvature="0" />
      <path
         inkscape:connector-curvature="0"
         id="path3912-2"
         d="m 416.98395,179.28733 c 0,0 4.8407,5.60507 6.0509,10.82797 1.2102,5.22291 1.0828,7.07003 -4.4586,6.62417 -5.5413,-0.44585 -3.0573,-2.22928 -6.242,-2.99361 -3.1847,-0.76433 -3.6305,-2.67515 -2.8662,-5.73246 0.7643,-3.0573 7.5159,-8.72607 7.5159,-8.72607 z"
         style="fill:#4a88cf;fill-opacity:1;stroke:none;stroke-width:0.26458332px;stroke-linecap:butt;stroke-linejoin:miter;stroke-opacity:1" />
      <path
         inkscape:connector-curvature="0"
         id="path3914-2"
         d="m 414.43615,178.45931 c 0,0 5.0319,4.71336 6.242,9.87256 1.2102,5.15921 0.5733,6.68787 0.5733,6.68787 0,0 -0.8917,-5.60507 -2.3567,-8.53499 -1.465,-2.92992 -3.1847,-4.52227 -3.1847,-4.52227 0,0 2.5478,5.09552 2.6752,8.28021 0.1273,3.1847 -0.5733,5.35029 -0.5733,5.35029 0,0 0,-5.98723 -1.8471,-9.55409 -1.8471,-3.56686 -1.8471,-3.56686 -1.8471,-3.56686 0,0 1.8471,3.82164 1.3375,7.3248 -0.5095,3.50317 -0.9554,4.14011 -0.9554,4.14011 0,0 0.9554,-4.52227 -0.4458,-7.45219 -1.4013,-2.92992 -1.4013,-2.92992 -1.4013,-2.92992 z"
         style="fill:#306db3;fill-opacity:1;stroke:none;stroke-width:0.26458332px;stroke-linecap:butt;stroke-linejoin:miter;stroke-opacity:1" />
      <path
         sodipodi:nodetypes="ccscccccccscccccccc"
         inkscape:connector-curvature="0"
         id="path3874-9"
         d="m 444.48025,119.42789 c -0.4859,0.0197 -1.0873,0.17416 -1.8278,0.49661 -3.949,1.71973 -29.1441,15.33982 -45.358,42.90333 -16.2138,27.56351 -8.9178,50.80366 -1.6216,53.68612 2.2556,0.89109 3.8209,0.81668 4.9093,0.29042 0.7213,0.30559 1.5337,0.52897 2.4526,0.63563 7.1337,0.82801 10.255,0.70069 11.8473,1.71979 1.5924,1.0191 1.5922,1.59215 1.5922,1.59215 0,0 3.1211,-3.12089 1.911,-8.78965 -0.8691,-4.07066 -3.4731,-5.63454 -4.8762,-6.196 -1.1298,0.37963 -2.4596,0.48665 -4.1047,0.14521 -3.2578,-0.67616 -5.6228,-3.04283 -7.2011,-5.3113 1.7112,-3.24042 4.6646,-7.35018 9.5033,-12.55066 19.2764,-20.71767 40.0843,-47.56089 42.7865,-53.68612 2.7023,-6.12522 0.264,-9.00837 -3.6093,-6.21599 -3.8734,2.79238 -4.4093,3.84714 -4.4093,3.84714 l -0.9875,1.1467 c 0,0 0.2228,-6.27392 0.6687,-9.07645 0.3622,-2.27706 0.43,-4.72244 -1.6754,-4.63693 z"
         style="fill:#9bdce2;fill-opacity:1;stroke:none;stroke-width:0.26458332px;stroke-linecap:butt;stroke-linejoin:miter;stroke-opacity:1" />
      <path
         inkscape:connector-curvature="0"
         id="path3848-7"
         d="m 397.11145,215.72027 c 0,0 -3.6943,-2.1019 -4.7134,-13.05726 -1.0191,-10.95536 4.9682,-19.36296 16.8152,-29.17182 11.8471,-9.80887 10.5095,-11.91077 10.5095,-11.91077 0,0 4.3949,3.121 9.0446,-0.44586 4.6496,-3.56686 10.7643,-9.93625 10.7643,-9.93625 0,0 -2.3567,2.22929 -5.3503,3.37578 -2.9937,1.14649 -2.9937,1.14649 -2.9937,1.14649 0,0 8.344,-6.05093 8.4076,-10.25473 0.064,-4.2038 -7.2611,-5.2229 -7.2611,-5.2229 0,0 7.0064,1.97451 6.5605,-1.46496 -0.4459,-3.43947 -0.1911,-8.66237 1.8471,-13.12095 2.0382,-4.45858 3.7978,-5.34536 4.3383,-4.51214 0.5404,0.83321 -0.071,5.08539 0.057,8.079 0.1273,2.99362 0.3503,3.91718 0.3503,3.91718 l 0.9872,-1.14649 c 0,0 -0.6051,-1.21019 0.096,-5.95539 0.7007,-4.74519 0.3584,-6.77967 -1.1743,-6.98854 -1.5327,-0.20887 -5.8957,4.02678 -5.8957,4.02678 l -12.7503,20.65422 -11.1696,6.75576 c 0,0 -21.2581,21.43829 -25.9421,27.74367 -4.684,6.30537 -5.3145,12.07029 -4.9542,16.75429 0.3603,4.68399 5.1344,14.68252 7.026,17.56498 1.8916,2.88246 5.945,5.0443 5.945,5.0443 z"
         style="fill:#61c8d2;fill-opacity:1;stroke:none;stroke-width:0.26458332px;stroke-linecap:butt;stroke-linejoin:miter;stroke-opacity:1" />
      <path
         sodipodi:nodetypes="cccccscccsscc"
         inkscape:connector-curvature="0"
         id="path3837-5"
         d="m 436.85645,126.99461 c 0,0 -3.949,14.52222 -3.0573,20.63684 0.8917,6.11462 -15.7961,3.94902 -15.7961,3.94902 0,0 6.1146,2.48407 9.363,2.54776 l 3.2484,0.0637 c 0,0 -2.4204,2.92993 -15.5413,7.00634 -13.121,4.07641 -25.0954,15.35023 -25.6687,30.70048 -0.1214,6.51685 -0.8403,18.32829 6.9745,24.42662 l 0.4649,2.44014 c 0,0 -9.9084,-4.14337 -13.8718,-15.49306 -3.9634,-11.34968 -3.5675,-26.21439 4.5853,-39.08057 8.1528,-12.86617 49.2991,-37.19726 49.2991,-37.19726 z"
         style="fill:#4a88cf;fill-opacity:1;stroke:none;stroke-width:0.26458332px;stroke-linecap:butt;stroke-linejoin:miter;stroke-opacity:1" />
      <path
         inkscape:connector-curvature="0"
         id="path3821-6"
         d="m 445.39545,119.05066 c 0,0 -16.1239,0.45051 -35.1302,12.16049 -13.9341,8.58501 -20.4099,16.34646 -24.9338,24.06623 -3.5667,0.31264 -10.2396,1.04748 -15.0601,2.50631 -6.8458,2.07176 -7.0259,3.78323 -7.0259,3.78323 0,0 2.2658,2.72523 3.4468,9.24905 0.026,-0.22117 0.021,-0.44239 0.055,-0.66249 0.072,-0.46341 0.1619,-0.92353 0.2728,-1.37666 0.111,-0.45314 0.2428,-0.89895 0.3979,-1.33429 0.1552,-0.43534 0.3335,-0.86017 0.538,-1.2702 0.2045,-0.41003 0.435,-0.80516 0.694,-1.18236 0.259,-0.3772 0.5329,-0.73057 0.8185,-1.06144 0.2857,-0.33086 0.5833,-0.63951 0.8899,-0.92707 0.6133,-0.57512 1.2626,-1.06661 1.9255,-1.48673 0.6628,-0.42013 1.3393,-0.76893 2.0061,-1.05834 0.6667,-0.2894 1.3243,-0.51931 1.9492,-0.70228 0.6249,-0.18297 1.2171,-0.3188 1.7544,-0.41961 0.5373,-0.10081 1.0198,-0.16688 1.4237,-0.20981 0.8079,-0.0859 1.3033,-0.0801 1.3033,-0.0801 0,0 -0.327,0.39441 -0.8547,1.0728 -0.5278,0.67839 -1.2569,1.6409 -2.0619,2.77812 -0.8051,1.13722 -1.6859,2.44912 -2.5177,3.82561 -0.4159,0.68824 -0.8197,1.39273 -1.1953,2.09961 -0.3756,0.70689 -0.7233,1.41599 -1.0273,2.11409 -0.152,0.34904 -0.2686,0.69899 -0.354,1.04799 -0.085,0.34901 -0.1394,0.69729 -0.1659,1.04335 -0.027,0.34606 -0.025,0.6897 0,1.02991 0.025,0.34021 0.073,0.67675 0.1421,1.00821 0.1373,0.66291 0.3542,1.30568 0.6207,1.91616 0.1184,0.27127 0.2724,0.50824 0.4077,0.76585 0.9135,-1.12301 1.4216,-1.6769 1.4216,-1.6769 0,0 -0.4366,1.06917 -0.9788,2.50785 0.024,0.0397 0.043,0.0874 0.067,0.12661 0.2473,0.39473 0.5056,0.73648 0.7612,1.079 0.459,-1.6643 1.2319,-3.46766 2.5844,-4.88239 -1.3597,8.69845 -0.5624,17.91996 1.1689,23.23734 2.5221,7.7466 7.476,12.79112 11.5295,16.48427 2.9489,2.6868 5.0723,3.64816 6.0188,3.97753 0.2568,0.89226 0.659,1.79607 1.2702,2.66186 3.0573,4.33119 7.5163,6.30607 7.5163,6.30607 0,0 0,-1.81016 0.6206,-3.49953 -0.3984,-0.27762 -0.7979,-0.53932 -1.1921,-0.85783 -0.6309,-0.50967 -1.2519,-1.07293 -1.849,-1.69395 -0.2986,-0.3105 -0.5725,-0.62807 -0.8232,-0.95136 -0.2508,-0.32329 -0.4784,-0.65214 -0.6853,-0.98392 -0.4136,-0.66356 -0.7433,-1.33999 -1.0045,-2.01176 -0.1528,-0.39276 -0.2383,-0.77397 -0.3473,-1.16014 -0.045,-0.0253 -0.097,-0.0443 -0.1416,-0.0703 -0.3101,-0.18214 -0.5995,-0.38046 -0.8697,-0.5917 -0.5404,-0.42247 -1.0036,-0.8959 -1.4004,-1.39164 -0.3969,-0.49574 -0.7274,-1.01395 -1.002,-1.52549 -0.029,-0.0546 -0.043,-0.10422 -0.071,-0.15865 -0.3123,1.19886 -0.6868,3.30834 -0.1044,5.62292 -2.4837,-1.88863 -11.6104,-9.54028 -13.5872,-21.40128 -2.293,-13.75789 3.185,-27.64295 11.083,-35.28622 7.8981,-7.64328 14.6813,-7.03833 14.6813,-7.03833 0,0 4.2274,7.22375 14.8565,5.24206 10.629,-1.98169 10.7187,-3.2427 10.7187,-3.2427 0,0 -8.1518,3.64774 -15.2678,1.66605 -7.1161,-1.98169 -8.152,-5.35936 -8.152,-5.35936 0,0 4.0983,4.68422 7.1159,2.2071 3.0175,-2.47711 2.4322,-4.00883 5.1345,-2.97294 2.7023,1.03588 7.0259,2.16211 11.1244,0.72088 4.0985,-1.44123 4.9992,-2.88251 4.9992,-2.88251 0,0 -7.8363,4.59387 -14.502,0.90072 -6.6656,-3.69315 -6.4859,-8.82737 -6.4859,-8.82737 0,0 4.0989,8.69228 9.4134,6.48539 5.3145,-2.20688 3.306,-8.49149 5.9175,-13.96917 2.6114,-5.47768 3.1212,-5.4777 3.1212,-5.4777 0,0 -5.0958,8.72604 -1.5926,12.73876 3.5031,4.01272 5.4777,-2.92954 5.4777,-2.92954 0,0 -2.9936,4.71305 -5.0318,0.89142 -2.0382,-3.82164 5.5595,-19.2523 10.1684,-20.70881 z"
         style="fill:#306db3;fill-opacity:1;stroke:none;stroke-width:0.26458332px;stroke-linecap:butt;stroke-linejoin:miter;stroke-opacity:1" />
      <path
         inkscape:connector-curvature="0"
         id="path3811-4"
         d="m 433.57275,126.03157 c 0,0 -0.4504,0.96832 -0.8332,1.4187 -0.3829,0.45039 -0.3829,0.45039 -0.3829,0.45039 0,0 -0.8782,-2.8149 -3.6931,-0.4729 -2.8149,2.34199 1.0359,4.05345 1.0359,4.05345 0,0 3.5355,-1.32863 3.8733,-5.44964 z"
         style="fill:#9bbde4;fill-opacity:1;stroke:none;stroke-width:0.26458332px;stroke-linecap:butt;stroke-linejoin:miter;stroke-opacity:1" />
      <path
         inkscape:connector-curvature="0"
         id="path3817-6"
         d="m 429.00105,130.4762 c 0.032,0.0239 1.1386,0.95541 2.5319,-0.57324 1.3933,-1.52866 0.1353,-3.63852 -1.6561,-2.75476 -1.7913,0.88375 -1.7754,2.67514 -0.8758,3.328 z"
         style="fill:#5d94d4;fill-opacity:1;stroke:none;stroke-width:0.26458332px;stroke-linecap:butt;stroke-linejoin:miter;stroke-opacity:1" />
      <path
         inkscape:connector-curvature="0"
         id="path3815-3"
         d="m 431.61255,128.93958 a 1.2181466,1.2181466 0 0 1 -1.2181,1.21814 1.2181466,1.2181466 0 0 1 -1.2182,-1.21814 1.2181466,1.2181466 0 0 1 1.2182,-1.21815 1.2181466,1.2181466 0 0 1 1.2181,1.21815 z"
         style="opacity:1;vector-effect:none;fill:#306db3;fill-opacity:1;stroke:none;stroke-width:0.26458332px;stroke-linecap:butt;stroke-linejoin:miter;stroke-miterlimit:4;stroke-dasharray:none;stroke-dashoffset:0;stroke-opacity:1;paint-order:stroke fill markers" />
      <path
         inkscape:connector-curvature="0"
         id="path3813-7"
         d="m 430.03615,129.34564 a 0.65286285,0.65286285 0 0 1 -0.6529,0.65287 0.65286285,0.65286285 0 0 1 -0.6529,-0.65287 0.65286285,0.65286285 0 0 1 0.6529,-0.65286 0.65286285,0.65286285 0 0 1 0.6529,0.65286 z"
         style="opacity:1;vector-effect:none;fill:#ffffff;fill-opacity:1;stroke:none;stroke-width:0.26458332px;stroke-linecap:butt;stroke-linejoin:miter;stroke-miterlimit:4;stroke-dasharray:none;stroke-dashoffset:0;stroke-opacity:1;paint-order:stroke fill markers" />
      <path
         inkscape:connector-curvature="0"
         id="path3831-9"
         d="m 380.71985,159.0446 c 0,0 -0.4954,-0.006 -1.3033,0.0801 -0.404,0.0429 -0.8864,0.109 -1.4237,0.20981 -0.5373,0.10081 -1.1295,0.23664 -1.7544,0.41961 -0.6249,0.18297 -1.2825,0.41288 -1.9493,0.70228 -0.6667,0.28941 -1.3431,0.63821 -2.006,1.05834 -0.6629,0.42012 -1.3122,0.91161 -1.9255,1.48673 -0.3066,0.28756 -0.6042,0.59621 -0.8899,0.92707 -0.2856,0.33087 -0.5595,0.68424 -0.8185,1.06144 -0.259,0.3772 -0.4895,0.77233 -0.694,1.18236 -0.2045,0.41003 -0.3828,0.83486 -0.538,1.2702 -0.1551,0.43534 -0.2869,0.88115 -0.3979,1.33429 -0.1109,0.45313 -0.2011,0.91325 -0.2728,1.37666 -0.034,0.2201 -0.029,0.44132 -0.055,0.66249 0.083,0.45796 0.1751,0.88345 0.246,1.37976 0.5444,3.81098 2.4137,6.88834 4.1356,9.00669 0.062,-0.0895 0.1223,-0.17899 0.1881,-0.26924 1.2393,-1.69955 1.8599,-2.45955 2.4516,-3.18688 v 0 c -0.1353,-0.25761 -0.2893,-0.49458 -0.4078,-0.76585 -0.2665,-0.61048 -0.4834,-1.25325 -0.6206,-1.91616 -0.069,-0.33146 -0.1172,-0.668 -0.1421,-1.00821 -0.025,-0.34021 -0.026,-0.68385 0,-1.02991 0.026,-0.34606 0.08,-0.69434 0.1659,-1.04335 0.085,-0.349 0.202,-0.69895 0.354,-1.04799 0.304,-0.6981 0.6517,-1.4072 1.0273,-2.11409 0.3756,-0.70689 0.7794,-1.41137 1.1953,-2.09961 0.8318,-1.37649 1.7126,-2.68839 2.5176,-3.82561 0.8051,-1.13722 1.5341,-2.09973 2.0619,-2.77812 0.5278,-0.67839 0.8548,-1.0728 0.8548,-1.0728 z m -6.5635,19.53265 c -0.4917,1.30487 -1.07,2.90901 -1.4934,4.3832 0.9643,0.96205 1.6619,1.4857 1.6619,1.4857 0,0 -0.027,-2.171 0.6599,-4.66329 -0.2557,-0.34252 -0.5139,-0.68427 -0.7612,-1.079 -0.025,-0.0393 -0.043,-0.0869 -0.067,-0.12661 z"
         style="fill:#79a6db;fill-opacity:1;stroke:none;stroke-width:0.26458332px;stroke-linecap:butt;stroke-linejoin:miter;stroke-opacity:1" />
      <path
         inkscape:connector-curvature="0"
         id="path3865-7"
         d="m 399.79255,216.40905 c 0.109,0.38617 0.1945,0.76738 0.3473,1.16014 0.2612,0.67177 0.5909,1.3482 1.0045,2.01176 0.2069,0.33178 0.4345,0.66063 0.6853,0.98392 0.2507,0.32329 0.5246,0.64086 0.8232,0.95136 0.5971,0.62102 1.2181,1.18428 1.849,1.69395 0.3942,0.31851 0.7937,0.58021 1.1921,0.85783 0.4801,-1.31336 1.3225,-2.55581 2.8826,-2.80654 2.5347,-0.40736 2.5899,-1.78012 0.9668,-3.18017 -1.741,-0.1621 -3.6072,-0.30454 -6.5086,-0.6413 -0.4459,-0.0518 -0.8671,-0.13067 -1.2651,-0.23307 -0.3979,-0.10239 -0.7723,-0.22827 -1.1249,-0.37413 -0.3025,-0.12509 -0.5812,-0.27161 -0.8522,-0.42375 z"
         style="fill:#4a88cf;fill-opacity:1;stroke:none;stroke-width:0.26458332px;stroke-linecap:butt;stroke-linejoin:miter;stroke-opacity:1" />
      <path
         sodipodi:nodetypes="cccccscc"
         inkscape:connector-curvature="0"
         id="path3850-4"
         d="m 427.17495,163.74601 c 0,0 -2.6751,1.21019 -4.9681,0.25478 -2.293,-0.95541 -2.4841,-2.42037 -2.4841,-2.42037 0,0 -12.6114,3.82164 -18.2801,8.85346 -5.6688,5.03182 -5.1593,5.54137 -5.1593,5.54137 0,0 12.1019,4.90443 19.6178,-0.44586 7.8174,-5.56492 7.4522,-10.4458 7.4522,-10.4458 0,0 2.8662,-0.12739 3.8216,-1.33758 z"
         style="fill:#4a88cf;fill-opacity:1;stroke:none;stroke-width:0.26458332px;stroke-linecap:butt;stroke-linejoin:miter;stroke-opacity:1" />
      <path
         sodipodi:nodetypes="ccccccccscccccccccccccccccccsc"
         inkscape:connector-curvature="0"
         id="path3852-9"
         d="m 419.72255,161.58036 c 0,0 -12.6112,3.8219 -18.28,8.85372 -5.6687,5.03182 -5.1593,5.54126 -5.1593,5.54126 0,0 0.1547,0.0573 0.2123,0.0796 0.8933,-0.90226 2.7457,-2.59036 6.5712,-5.52576 5.2059,-3.99467 12.2692,-6.43638 14.8058,-7.23419 0.639,-0.21316 1.0222,-0.31316 1.0222,-0.31316 0,0 -0.4242,0.1251 -1.0222,0.31316 -1.3409,0.44734 -3.9159,1.43997 -7.1944,3.38119 -4.8407,2.86622 -10.0319,8.31164 -10.0319,8.31164 0,0 1.4971,-1.27366 7.2295,-5.0953 5.2731,-3.51541 10.5971,-5.85481 11.4515,-6.22287 -0.5637,0.25613 -1.9662,0.93802 -4.9227,2.62412 -4.0764,2.32483 -8.2486,8.40776 -8.2486,8.40776 0,0 1.5285,-1.46526 5.7005,-5.09581 4.1719,-3.63056 8.0253,-5.2865 8.0253,-5.2865 0,0 -2.3248,1.59224 -4.8726,3.91707 -2.5477,2.32483 -4.1082,6.87917 -4.1082,6.87917 0,0 1.3059,-1.4331 4.0447,-4.87257 2.7388,-3.43948 6.0828,-5.22294 6.0828,-5.22294 0,0 -0.8917,0.85974 -2.7388,2.80241 -1.8472,1.94266 -2.1337,5.60535 -2.1337,5.60535 l 1.1146,-2.1978 c 1.1147,-2.19744 4.4902,-5.82807 4.4902,-5.82807 0,0 2e-4,0.89205 -1.1462,4.07675 -0.57,1.58315 -2.4145,3.79518 -4.1259,5.62033 7.2077,-5.38354 6.8647,-10.01541 6.8647,-10.01541 0,0 2.8661,-0.12719 3.8215,-1.33738 0,0 -2.6752,1.21017 -4.9682,0.25476 -2.2929,-0.95541 -2.4841,-2.42052 -2.4841,-2.42052 z"
         style="fill:#306db3;fill-opacity:1;stroke:none;stroke-width:0.26458332px;stroke-linecap:butt;stroke-linejoin:miter;stroke-opacity:1" />
      <path
         inkscape:connector-curvature="0"
         id="path3886-1"
         d="m 424.97245,200.56919 c -0.01,0.006 -0.01,0.008 -0.015,0.014 -0.3621,0.41009 -0.7362,0.90198 -1.0909,1.48466 -0.3547,0.58268 -0.6898,1.25611 -0.973,2.02933 -0.1417,0.38661 -0.2702,0.79798 -0.3819,1.23559 -0.1118,0.4376 -0.2068,0.90131 -0.2807,1.39216 -0.074,0.49085 -0.127,1.00913 -0.155,1.55546 -0.028,0.54633 -0.031,1.1209 0,1.72496 0.026,0.60406 0.081,1.23714 0.1685,1.90118 0.088,0.66403 0.2082,1.35889 0.3658,2.08514 0.1577,0.72624 0.373,1.44348 0.6382,2.14974 0.2652,0.70625 0.5803,1.40123 0.9374,2.08411 0.3572,0.68288 0.7568,1.35358 1.1901,2.00969 0.4335,0.65612 0.9008,1.29796 1.3948,1.92392 0.494,0.62596 1.0144,1.23588 1.5534,1.82831 0.5389,0.59243 1.0967,1.16739 1.665,1.72289 1.1365,1.11101 2.316,2.14468 3.4758,3.08767 1.1597,0.94299 2.2997,1.79511 3.3574,2.543 0.6814,0.48183 1.2485,0.84346 1.8448,1.23506 0.01,-0.0149 0.036,-0.0238 0.041,-0.0403 0.3184,-1.0191 -4.968,-6.24249 -9.554,-12.73927 -4.586,-6.49678 -4.6494,-12.41998 -4.331,-16.87855 0.069,-0.97127 0.1241,-1.71146 0.154,-2.3487 z"
         style="fill:#4a88cf;fill-opacity:1;stroke:none;stroke-width:0.26458332px;stroke-linecap:butt;stroke-linejoin:miter;stroke-opacity:1" />
      <path
         inkscape:connector-curvature="0"
         id="path3872-7"
         d="m 424.13735,198.53882 c -0.5223,0.0162 -1.3332,0.3186 -2.5673,0.87592 -2.9868,1.34888 -4.5542,5.17316 -8.061,6.35155 1.4031,0.56146 4.0071,2.12534 4.8762,6.196 1.2101,5.66876 -1.911,8.78965 -1.911,8.78965 2.4203,2.54776 1.6563,3.12109 7.3251,6.94273 5.577,3.75975 14.279,5.78686 14.8632,4.88135 -0.5964,-0.3916 -1.1634,-0.75323 -1.8449,-1.23507 -1.0577,-0.74788 -2.1976,-1.6 -3.3574,-2.54299 -1.1597,-0.94299 -2.3392,-1.97666 -3.4757,-3.08767 -0.5683,-0.5555 -1.1261,-1.13047 -1.6651,-1.72289 -0.5389,-0.59243 -1.0593,-1.20235 -1.5534,-1.82831 -0.494,-0.62597 -0.9613,-1.2678 -1.3947,-1.92392 -0.4334,-0.65611 -0.833,-1.32682 -1.1901,-2.00969 -0.3571,-0.68288 -0.6722,-1.37786 -0.9374,-2.08412 -0.2652,-0.70625 -0.4806,-1.42349 -0.6382,-2.14973 -0.1577,-0.72625 -0.2782,-1.42112 -0.3659,-2.08515 -0.088,-0.66403 -0.1426,-1.29711 -0.1685,-1.90117 -0.026,-0.60406 -0.023,-1.17863 0.01,-1.72496 0.028,-0.54633 0.081,-1.06461 0.155,-1.55546 0.074,-0.49085 0.1689,-0.95456 0.2806,-1.39217 0.1118,-0.4376 0.2403,-0.84897 0.3819,-1.23558 0.2832,-0.77322 0.6184,-1.44665 0.9731,-2.02933 0.3546,-0.58269 0.7288,-1.07457 1.0908,-1.48467 0.01,-0.006 0.01,-0.008 0.015,-0.0139 0.065,-1.37386 -0.05,-2.05467 -0.8351,-2.03037 z"
         style="fill:#306db3;fill-opacity:1;stroke:none;stroke-width:0.26458332px;stroke-linecap:butt;stroke-linejoin:miter;stroke-opacity:1" />
      <path
         inkscape:connector-curvature="0"
         id="path3907-0"
         d="m 417.49375,209.44203 c -0.3844,-0.31989 -0.7748,-0.57907 -1.1787,-0.77669 -0.416,-0.20352 -0.8457,-0.34772 -1.2971,-0.44339 -0.4513,-0.0957 -0.9241,-0.14301 -1.4257,-0.15296 -0.5016,-0.01 -1.0321,0.0177 -1.5989,0.0713 -0.5668,0.0536 -1.17,0.13337 -1.817,0.22841 -1.2937,0.19009 -2.7625,0.4406 -4.4663,0.66353 -0.426,0.0557 -0.8199,0.0757 -1.1845,0.0641 -0.3645,-0.0117 -0.6998,-0.055 -1.0077,-0.12558 -0.3078,-0.0705 -0.5881,-0.16798 -0.8438,-0.28887 -0.2557,-0.12088 -0.4868,-0.26516 -0.6951,-0.42788 -0.2082,-0.16272 -0.3937,-0.34399 -0.5591,-0.54002 -0.1654,-0.19602 -0.3105,-0.40653 -0.4377,-0.62735 -0.2544,-0.44163 -0.437,-0.92422 -0.5664,-1.41386 -0.024,-0.0906 -0.025,-0.17843 -0.045,-0.26924 -1.1581,5.52959 2.6888,6.78667 2.6888,6.78667 0,0 2.4602,1.4921 7.7468,-0.35502 4.0639,-1.41993 6.5792,0.28483 7.846,2.19056 -0.01,-0.16124 -0.017,-0.32538 -0.031,-0.49196 -0.013,-0.1496 -0.029,-0.30185 -0.048,-0.45578 0,-0.0174 0,-0.0342 -0.01,-0.0517 -2e-4,-0.002 0,-0.003 0,-0.005 -0.019,-0.14788 -0.042,-0.29875 -0.067,-0.45062 0,-0.023 -0.01,-0.0452 -0.01,-0.0682 -2e-4,-0.001 0,-0.003 0,-0.004 -0.03,-0.17602 -0.064,-0.35453 -0.1028,-0.53588 -0.2094,-0.98092 -0.5232,-1.80942 -0.893,-2.52026 z"
         style="fill:#79a6db;fill-opacity:1;stroke:none;stroke-width:0.26458332px;stroke-linecap:butt;stroke-linejoin:miter;stroke-opacity:1" />
      <path
         inkscape:connector-curvature="0"
         id="path3890-6"
         d="m 402.20685,200.60536 c -0.9921,1.88092 -1.5565,3.46083 -1.8366,4.79816 0.02,0.0908 0.021,0.17869 0.045,0.26924 0.1294,0.48964 0.312,0.97223 0.5664,1.41386 0.1272,0.22082 0.2723,0.43133 0.4377,0.62735 0.1654,0.19603 0.3509,0.3773 0.5591,0.54002 0.2083,0.16272 0.4394,0.307 0.6951,0.42788 0.2557,0.12089 0.536,0.21834 0.8438,0.28887 0.3079,0.0705 0.6432,0.11392 1.0077,0.12558 0.3646,0.0117 0.7585,-0.008 1.1845,-0.0641 1.7038,-0.22293 3.1726,-0.47344 4.4663,-0.66353 0.647,-0.095 1.2502,-0.17479 1.817,-0.22841 0.5668,-0.0536 1.0973,-0.0813 1.5989,-0.0713 0.5016,0.01 0.9744,0.0573 1.4257,0.15296 0.4514,0.0957 0.8811,0.23987 1.2971,0.44339 0.4039,0.19762 0.7943,0.4568 1.1787,0.77669 -1.1648,-2.23905 -2.9181,-3.24957 -3.9832,-3.67574 -1.1297,0.37963 -2.4595,0.48665 -4.1046,0.14521 -3.2555,-0.67565 -5.6193,-3.03924 -7.1975,-5.30614 z"
         style="fill:#4a88cf;fill-opacity:1;stroke:none;stroke-width:0.26458332px;stroke-linecap:butt;stroke-linejoin:miter;stroke-opacity:1" />
      <path
         sodipodi:nodetypes="ccscsc"
         inkscape:connector-curvature="0"
         id="path3910-0"
         d="m 444.94565,133.74617 -4.5542,4.6815 c -0.4426,-1.67547 -1.0687,-7.09185 0.1274,-10.47765 0.6839,-1.93598 2.0701,-4.77705 3.5032,-6.17831 1.3057,-1.36942 0.604,4.20264 0.6369,7.67512 0.031,3.25215 0.2867,4.29934 0.2867,4.29934 z"
         style="fill:#306db3;fill-opacity:1;stroke:none;stroke-width:0.26458332px;stroke-linecap:butt;stroke-linejoin:miter;stroke-opacity:1" />
    </g>
  </g>
</svg>
